rtl/top.vcd
$version Generated by VerilatedVcd $end
$timescale 1ps $end

 $scope module TOP $end
  $var wire  1 d iClk $end
  $var wire  1 e iRst $end
  $var wire 32 f oRega0 [31:0] $end
  $scope module top $end
   $var wire  4 Y alu_control [3:0] $end
   $var wire 32 W alu_op1 [31:0] $end
   $var wire 32 i alu_op2 [31:0] $end
   $var wire 32 h alu_result [31:0] $end
   $var wire  1 ' alu_src $end
   $var wire  1 d iClk $end
   $var wire  1 e iRst $end
   $var wire 32 V imm_ext [31:0] $end
   $var wire  4 R instruction_sub_type [3:0] $end
   $var wire  4 Q instruction_type [3:0] $end
   $var wire 32 X mem_data_in [31:0] $end
   $var wire 32 + mem_data_out [31:0] $end
   $var wire  1 & mem_write_en $end
   $var wire 32 N oRega0 [31:0] $end
   $var wire 32 O pc [31:0] $end
   $var wire  1 # pc_src $end
   $var wire  5 U rd [4:0] $end
   $var wire 32 g reg_data_in [31:0] $end
   $var wire 32 W reg_data_out1 [31:0] $end
   $var wire 32 X reg_data_out2 [31:0] $end
   $var wire  1 % reg_write_en $end
   $var wire  3 ( result_src [2:0] $end
   $var wire  5 S rs1 [4:0] $end
   $var wire  5 T rs2 [4:0] $end
   $var wire 32 P target_pc [31:0] $end
   $var wire  1 $ zero $end
   $scope module Alu $end
    $var wire 32 q DATA_WIDTH [31:0] $end
    $var wire 32 s OP_WIDTH [31:0] $end
    $var wire  4 n iAluControl [3:0] $end
    $var wire 32 o iAluOp1 [31:0] $end
    $var wire 32 p iAluOp2 [31:0] $end
    $var wire 32 h oAluResult [31:0] $end
    $var wire  1 $ oZero $end
    $var wire 32 * out [31:0] $end
   $upscope $end
   $scope module ControlUnit $end
    $var wire 32 Z current_instruction [31:0] $end
    $var wire 32 O iPC [31:0] $end
    $var wire  1 $ iZero $end
    $var wire  4 Y oAluControl [3:0] $end
    $var wire  1 ' oAluSrc $end
    $var wire 32 V oImmExt [31:0] $end
    $var wire  4 R oInstructionSubType [3:0] $end
    $var wire  4 Q oInstructionType [3:0] $end
    $var wire  1 & oMemWrite $end
    $var wire  1 # oPCSrc $end
    $var wire  5 U oRd [4:0] $end
    $var wire  1 % oRegWrite $end
    $var wire  3 ( oResultSrc [2:0] $end
    $var wire  5 S oRs1 [4:0] $end
    $var wire  5 T oRs2 [4:0] $end
    $scope module ControlPath $end
     $var wire  3 ] funct3 [2:0] $end
     $var wire  7 \ funct7 [6:0] $end
     $var wire 32 Z iInstruction [31:0] $end
     $var wire  1 $ iZero $end
     $var wire  4 R instruction_sub_type [3:0] $end
     $var wire  4 Q instruction_type [3:0] $end
     $var wire  4 Y oAluControl [3:0] $end
     $var wire  1 ' oAluSrc $end
     $var wire 32 V oImmExt [31:0] $end
     $var wire  4 R oInstructionSubType [3:0] $end
     $var wire  4 Q oInstructionType [3:0] $end
     $var wire  1 & oMemWrite $end
     $var wire  1 # oPCSrc $end
     $var wire  5 U oRd [4:0] $end
     $var wire  1 % oRegWrite $end
     $var wire  3 ( oResultSrc [2:0] $end
     $var wire  5 S oRs1 [4:0] $end
     $var wire  5 T oRs2 [4:0] $end
     $var wire  7 [ op_code [6:0] $end
     $scope module AluControlEncoder $end
      $var wire  4 R iInstructionSubType [3:0] $end
      $var wire  4 Q iInstructionType [3:0] $end
      $var wire  4 Y oAluCtrl [3:0] $end
     $upscope $end
     $scope module ControlSignalDecoder $end
      $var wire  4 R iInstructionSubType [3:0] $end
      $var wire  4 Q iInstructionType [3:0] $end
      $var wire  1 $ iZero $end
      $var wire  1 ' oAluSrc $end
      $var wire  1 & oMemWrite $end
      $var wire  1 # oPCSrc $end
      $var wire  1 % oRegWrite $end
      $var wire  3 ( oResultSrc [2:0] $end
     $upscope $end
     $scope module ImmediateOperandDecoder $end
      $var wire 32 Z iInstruction [31:0] $end
      $var wire  4 R iInstructionSubType [3:0] $end
      $var wire  4 Q iInstructionType [3:0] $end
      $var wire 32 V oImmExt [31:0] $end
     $upscope $end
     $scope module InstructionDecoder $end
      $var wire  4 c b_type [3:0] $end
      $var wire  3 ] iFunct3 [2:0] $end
      $var wire  7 \ iFunct7 [6:0] $end
      $var wire  7 [ iOpCode [6:0] $end
      $var wire  4 _ i_type [3:0] $end
      $var wire  4 Q instruction_type [3:0] $end
      $var wire  4 b j_type [3:0] $end
      $var wire  4 R oInstructionSubType [3:0] $end
      $var wire  4 Q oInstructionType [3:0] $end
      $var wire  4 ^ r_type [3:0] $end
      $var wire  4 a s_type [3:0] $end
      $var wire  4 ` u_type [3:0] $end
     $upscope $end
    $upscope $end
    $scope module InstructionMem $end
     $var wire 32 q DATA_WIDTH [31:0] $end
     $var wire 32 O iPC [31:0] $end
     $var wire 32 Z oInstruction [31:0] $end
    $upscope $end
   $upscope $end
   $scope module DataMemory $end
    $var wire 32 q ADDRESS_WIDTH [31:0] $end
    $var wire 32 q DATA_WIDTH [31:0] $end
    $var wire  2 l byte_offset [1:0] $end
    $var wire 32 h iAddress [31:0] $end
    $var wire  1 d iClk $end
    $var wire  4 Q iInstructionType [3:0] $end
    $var wire 32 X iMemData [31:0] $end
    $var wire  4 R iMemoryInstructionType [3:0] $end
    $var wire  1 & iWriteEn $end
    $var wire 32 , mem_array[-1] [31:0] $end
    $var wire 32 - mem_array[0] [31:0] $end
    $var wire 32 j mem_cell [31:0] $end
    $var wire 32 ) mem_data [31:0] $end
    $var wire 32 + oMemData [31:0] $end
    $var wire 32 k word_aligned_address [31:0] $end
   $upscope $end
   $scope module PCRegister $end
    $var wire 32 m PCNext [31:0] $end
    $var wire  1 d iClk $end
    $var wire  1 # iPCSrc $end
    $var wire  1 e iRst $end
    $var wire 32 P iTargetPC [31:0] $end
    $var wire 32 O oPC [31:0] $end
   $upscope $end
   $scope module RegisterFile $end
    $var wire 32 r ADDRESS_WIDTH [31:0] $end
    $var wire 32 q DATA_WIDTH [31:0] $end
    $var wire  1 d iClk $end
    $var wire 32 g iDataIn [31:0] $end
    $var wire  5 S iReadAddress1 [4:0] $end
    $var wire  5 T iReadAddress2 [4:0] $end
    $var wire  5 U iWriteAddress [4:0] $end
    $var wire  1 % iWriteEn $end
    $var wire 32 W oRegData1 [31:0] $end
    $var wire 32 X oRegData2 [31:0] $end
    $var wire 32 N oRega0 [31:0] $end
    $var wire 32 . ram_array[0] [31:0] $end
    $var wire 32 8 ram_array[10] [31:0] $end
    $var wire 32 9 ram_array[11] [31:0] $end
    $var wire 32 : ram_array[12] [31:0] $end
    $var wire 32 ; ram_array[13] [31:0] $end
    $var wire 32 < ram_array[14] [31:0] $end
    $var wire 32 = ram_array[15] [31:0] $end
    $var wire 32 > ram_array[16] [31:0] $end
    $var wire 32 ? ram_array[17] [31:0] $end
    $var wire 32 @ ram_array[18] [31:0] $end
    $var wire 32 A ram_array[19] [31:0] $end
    $var wire 32 / ram_array[1] [31:0] $end
    $var wire 32 B ram_array[20] [31:0] $end
    $var wire 32 C ram_array[21] [31:0] $end
    $var wire 32 D ram_array[22] [31:0] $end
    $var wire 32 E ram_array[23] [31:0] $end
    $var wire 32 F ram_array[24] [31:0] $end
    $var wire 32 G ram_array[25] [31:0] $end
    $var wire 32 H ram_array[26] [31:0] $end
    $var wire 32 I ram_array[27] [31:0] $end
    $var wire 32 J ram_array[28] [31:0] $end
    $var wire 32 K ram_array[29] [31:0] $end
    $var wire 32 0 ram_array[2] [31:0] $end
    $var wire 32 L ram_array[30] [31:0] $end
    $var wire 32 M ram_array[31] [31:0] $end
    $var wire 32 1 ram_array[3] [31:0] $end
    $var wire 32 2 ram_array[4] [31:0] $end
    $var wire 32 3 ram_array[5] [31:0] $end
    $var wire 32 4 ram_array[6] [31:0] $end
    $var wire 32 5 ram_array[7] [31:0] $end
    $var wire 32 6 ram_array[8] [31:0] $end
    $var wire 32 7 ram_array[9] [31:0] $end
   $upscope $end
   $scope module ResultSelector $end
    $var wire 32 h iAluResult [31:0] $end
    $var wire 32 + iMemDataOut [31:0] $end
    $var wire 32 O iPC [31:0] $end
    $var wire  3 ( iResultSrc [2:0] $end
    $var wire 32 V iUpperImm [31:0] $end
    $var wire 32 g oRegDataIn [31:0] $end
   $upscope $end
   $scope module TargetPCAdder $end
    $var wire 32 V iImmExt [31:0] $end
    $var wire  4 R iInstructionSubType [3:0] $end
    $var wire  4 Q iInstructionType [3:0] $end
    $var wire 32 O iPC [31:0] $end
    $var wire 32 W iRegOffset [31:0] $end
    $var wire 32 P oPCTarget [31:0] $end
   $upscope $end
  $upscope $end
 $upscope $end
$enddefinitions $end


#0
0#
0$
0%
0&
0'
b000 (
b00000000000000000000000000000000 )
b00000000000000000000000000000000 *
b00000000000000000000000000000000 +
b00000000000000000000000000000000 ,
b00000000000000000000000000000000 -
b00000000000000000000000000000000 .
b00000000000000000000000000000000 /
b00000000000000000000000000000000 0
b00000000000000000000000000000000 1
b00000000000000000000000000000000 2
b00000000000000000000000000000000 3
b00000000000000000000000000000000 4
b00000000000000000000000000000000 5
b00000000000000000000000000000000 6
b00000000000000000000000000000000 7
b00000000000000000000000000000000 8
b00000000000000000000000000000000 9
b00000000000000000000000000000000 :
b00000000000000000000000000000000 ;
b00000000000000000000000000000000 <
b00000000000000000000000000000000 =
b00000000000000000000000000000000 >
b00000000000000000000000000000000 ?
b00000000000000000000000000000000 @
b00000000000000000000000000000000 A
b00000000000000000000000000000000 B
b00000000000000000000000000000000 C
b00000000000000000000000000000000 D
b00000000000000000000000000000000 E
b00000000000000000000000000000000 F
b00000000000000000000000000000000 G
b00000000000000000000000000000000 H
b00000000000000000000000000000000 I
b00000000000000000000000000000000 J
b00000000000000000000000000000000 K
b00000000000000000000000000000000 L
b00000000000000000000000000000000 M
b00000000000000000000000000000000 N
b00000000000000000000000000000000 O
b00000000000000000000000000000000 P
b0000 Q
b0000 R
b00000 S
b00000 T
b00000 U
b00000000000000000000000000000000 V
b00000000000000000000000000000000 W
b00000000000000000000000000000000 X
b0000 Y
b00000000000000000000000000000000 Z
b0000000 [
b0000000 \
b000 ]
b0000 ^
b0000 _
b0000 `
b0000 a
b0000 b
b0000 c
1d
0e
b00000000000000000000000000000000 f
b00000000000000000000000000000000 g
b00000000000000000000000000000000 h
b00000000000000000000000000000000 i
b00000000000000000000000000000000 j
b00000000000000000000000000000000 k
b00 l
b00000000000000000000000000000100 m
b0000 n
b00000000000000000000000000000000 o
b00000000000000000000000000000000 p
b00000000000000000000000000100000 q
b00000000000000000000000000000101 r
b00000000000000000000000000000100 s
#1
1%
1'
b00000000000000000000000011111111 *
b00000000000000000000000011111111 P
b0100 Q
b11111 T
b00110 U
b00000000000000000000000011111111 V
b00001111111100000000001100010011 Z
b0010011 [
b0000111 \
b1111 ^
b1111 `
b1111 a
b1111 b
b1111 c
0d
b00000000000000000000000011111111 g
b00000000000000000000000011111111 h
b00000000000000000000000011111111 i
b00000000000000000000000011111100 k
b11 l
b00000000000000000000000011111111 p
#2
1$
b00000000000000000000000000000000 *
b00000000000000000000000000000100 O
b00000000000000000000000000000100 P
b00000 T
b01010 U
b00000000000000000000000000000000 V
b00000000000000000000010100010011 Z
b0000000 \
1d
b00000000000000000000000000000000 g
b00000000000000000000000000000000 h
b00000000000000000000000000000000 i
b00000000000000000000000000000000 k
b00 l
b00000000000000000000000000001000 m
b00000000000000000000000000000000 p
#3
0d
#4
b00000000000000000000000000001000 O
b00000000000000000000000000001000 P
b01011 U
b00000000000000000000010110010011 Z
1d
b00000000000000000000000000001100 m
#5
0d
#6
b00000000000000000000000000001100 O
b00000000000000000000000000001100 P
b01011 S
b01010 U
b00000000000001011000010100010011 Z
1d
b00000000000000000000000000010000 m
#7
0d
#8
0$
b00000000000000000000000000000001 *
b00000000000000000000000000010000 O
b00000000000000000000000000010001 P
b00001 T
b01011 U
b00000000000000000000000000000001 V
b00000000000101011000010110010011 Z
1d
b00000000000000000000000000000001 g
b00000000000000000000000000000001 h
b00000000000000000000000000000001 i
b01 l
b00000000000000000000000000010100 m
b00000000000000000000000000000001 p
#9
b00000000000000000000000000000001 9
0d
#10
1#
0%
0'
b00000000000000000000000000010100 O
b00000000000000000000000000001100 P
b0000 Q
b0001 R
b00110 T
b11001 U
b11111111111111111111111111111000 V
b00000000000000000000000000000001 W
b0001 Y
b11111110011001011001110011100011 Z
b1100011 [
b1111111 \
b001 ]
b1111 _
b0001 c
1d
b00000000000000000000000000000000 i
b00000000000000000000000000001100 m
b0001 n
b00000000000000000000000000000001 o
b00000000000000000000000000000000 p
#11
0d
#12
0#
1%
1'
b00000000000000000000000000001100 O
b0100 Q
b0000 R
b00000 T
b01010 U
b00000000000000000000000000000000 V
b0000 Y
b00000000000001011000010100010011 Z
b0010011 [
b0000000 \
b000 ]
b0000 _
b1111 c
1d
b00000000000000000000000000010000 m
b0000 n
#13
b00000000000000000000000000000001 8
0d
#14
b00000000000000000000000000000010 *
b00000000000000000000000000000001 N
b00000000000000000000000000010000 O
b00000000000000000000000000010001 P
b00001 T
b01011 U
b00000000000000000000000000000001 V
b00000000000101011000010110010011 Z
1d
b00000000000000000000000000000001 f
b00000000000000000000000000000010 g
b00000000000000000000000000000010 h
b00000000000000000000000000000001 i
b10 l
b00000000000000000000000000010100 m
b00000000000000000000000000000001 p
#15
b00000000000000000000000000000010 9
0d
#16
1#
0%
0'
b00000000000000000000000000010100 O
b00000000000000000000000000001100 P
b0000 Q
b0001 R
b00110 T
b11001 U
b11111111111111111111111111111000 V
b00000000000000000000000000000010 W
b0001 Y
b11111110011001011001110011100011 Z
b1100011 [
b1111111 \
b001 ]
b1111 _
b0001 c
1d
b00000000000000000000000000000000 i
b00000000000000000000000000001100 m
b0001 n
b00000000000000000000000000000010 o
b00000000000000000000000000000000 p
#17
0d
#18
0#
1%
1'
b00000000000000000000000000001100 O
b0100 Q
b0000 R
b00000 T
b01010 U
b00000000000000000000000000000000 V
b0000 Y
b00000000000001011000010100010011 Z
b0010011 [
b0000000 \
b000 ]
b0000 _
b1111 c
1d
b00000000000000000000000000010000 m
b0000 n
#19
b00000000000000000000000000000010 8
0d
#20
b00000000000000000000000000000011 *
b00000000000000000000000000000010 N
b00000000000000000000000000010000 O
b00000000000000000000000000010001 P
b00001 T
b01011 U
b00000000000000000000000000000001 V
b00000000000101011000010110010011 Z
1d
b00000000000000000000000000000010 f
b00000000000000000000000000000011 g
b00000000000000000000000000000011 h
b00000000000000000000000000000001 i
b11 l
b00000000000000000000000000010100 m
b00000000000000000000000000000001 p
#21
b00000000000000000000000000000011 9
0d
#22
1#
0%
0'
b00000000000000000000000000010100 O
b00000000000000000000000000001100 P
b0000 Q
b0001 R
b00110 T
b11001 U
b11111111111111111111111111111000 V
b00000000000000000000000000000011 W
b0001 Y
b11111110011001011001110011100011 Z
b1100011 [
b1111111 \
b001 ]
b1111 _
b0001 c
1d
b00000000000000000000000000000000 i
b00000000000000000000000000001100 m
b0001 n
b00000000000000000000000000000011 o
b00000000000000000000000000000000 p
#23
0d
#24
0#
1%
1'
b00000000000000000000000000001100 O
b0100 Q
b0000 R
b00000 T
b01010 U
b00000000000000000000000000000000 V
b0000 Y
b00000000000001011000010100010011 Z
b0010011 [
b0000000 \
b000 ]
b0000 _
b1111 c
1d
b00000000000000000000000000010000 m
b0000 n
#25
b00000000000000000000000000000011 8
0d
#26
b00000000000000000000000000000100 *
b00000000000000000000000000000011 N
b00000000000000000000000000010000 O
b00000000000000000000000000010001 P
b00001 T
b01011 U
b00000000000000000000000000000001 V
b00000000000101011000010110010011 Z
1d
b00000000000000000000000000000011 f
b00000000000000000000000000000100 g
b00000000000000000000000000000100 h
b00000000000000000000000000000001 i
b00000000000000000000000000000100 k
b00 l
b00000000000000000000000000010100 m
b00000000000000000000000000000001 p
#27
b00000000000000000000000000000100 9
0d
#28
1#
0%
0'
b00000000000000000000000000010100 O
b00000000000000000000000000001100 P
b0000 Q
b0001 R
b00110 T
b11001 U
b11111111111111111111111111111000 V
b00000000000000000000000000000100 W
b0001 Y
b11111110011001011001110011100011 Z
b1100011 [
b1111111 \
b001 ]
b1111 _
b0001 c
1d
b00000000000000000000000000000000 i
b00000000000000000000000000001100 m
b0001 n
b00000000000000000000000000000100 o
b00000000000000000000000000000000 p
#29
0d
#30
0#
1%
1'
b00000000000000000000000000001100 O
b0100 Q
b0000 R
b00000 T
b01010 U
b00000000000000000000000000000000 V
b0000 Y
b00000000000001011000010100010011 Z
b0010011 [
b0000000 \
b000 ]
b0000 _
b1111 c
1d
b00000000000000000000000000010000 m
b0000 n
#31
b00000000000000000000000000000100 8
0d
#32
b00000000000000000000000000000101 *
b00000000000000000000000000000100 N
b00000000000000000000000000010000 O
b00000000000000000000000000010001 P
b00001 T
b01011 U
b00000000000000000000000000000001 V
b00000000000101011000010110010011 Z
1d
b00000000000000000000000000000100 f
b00000000000000000000000000000101 g
b00000000000000000000000000000101 h
b00000000000000000000000000000001 i
b01 l
b00000000000000000000000000010100 m
b00000000000000000000000000000001 p
#33
b00000000000000000000000000000101 9
0d
#34
1#
0%
0'
b00000000000000000000000000010100 O
b00000000000000000000000000001100 P
b0000 Q
b0001 R
b00110 T
b11001 U
b11111111111111111111111111111000 V
b00000000000000000000000000000101 W
b0001 Y
b11111110011001011001110011100011 Z
b1100011 [
b1111111 \
b001 ]
b1111 _
b0001 c
1d
b00000000000000000000000000000000 i
b00000000000000000000000000001100 m
b0001 n
b00000000000000000000000000000101 o
b00000000000000000000000000000000 p
#35
0d
#36
0#
1%
1'
b00000000000000000000000000001100 O
b0100 Q
b0000 R
b00000 T
b01010 U
b00000000000000000000000000000000 V
b0000 Y
b00000000000001011000010100010011 Z
b0010011 [
b0000000 \
b000 ]
b0000 _
b1111 c
1d
b00000000000000000000000000010000 m
b0000 n
#37
b00000000000000000000000000000101 8
0d
#38
b00000000000000000000000000000110 *
b00000000000000000000000000000101 N
b00000000000000000000000000010000 O
b00000000000000000000000000010001 P
b00001 T
b01011 U
b00000000000000000000000000000001 V
b00000000000101011000010110010011 Z
1d
b00000000000000000000000000000101 f
b00000000000000000000000000000110 g
b00000000000000000000000000000110 h
b00000000000000000000000000000001 i
b10 l
b00000000000000000000000000010100 m
b00000000000000000000000000000001 p
#39
b00000000000000000000000000000110 9
0d
#40
1#
0%
0'
b00000000000000000000000000010100 O
b00000000000000000000000000001100 P
b0000 Q
b0001 R
b00110 T
b11001 U
b11111111111111111111111111111000 V
b00000000000000000000000000000110 W
b0001 Y
b11111110011001011001110011100011 Z
b1100011 [
b1111111 \
b001 ]
b1111 _
b0001 c
1d
b00000000000000000000000000000000 i
b00000000000000000000000000001100 m
b0001 n
b00000000000000000000000000000110 o
b00000000000000000000000000000000 p
#41
0d
#42
0#
1%
1'
b00000000000000000000000000001100 O
b0100 Q
b0000 R
b00000 T
b01010 U
b00000000000000000000000000000000 V
b0000 Y
b00000000000001011000010100010011 Z
b0010011 [
b0000000 \
b000 ]
b0000 _
b1111 c
1d
b00000000000000000000000000010000 m
b0000 n
#43
b00000000000000000000000000000110 8
0d
#44
b00000000000000000000000000000111 *
b00000000000000000000000000000110 N
b00000000000000000000000000010000 O
b00000000000000000000000000010001 P
b00001 T
b01011 U
b00000000000000000000000000000001 V
b00000000000101011000010110010011 Z
1d
b00000000000000000000000000000110 f
b00000000000000000000000000000111 g
b00000000000000000000000000000111 h
b00000000000000000000000000000001 i
b11 l
b00000000000000000000000000010100 m
b00000000000000000000000000000001 p
#45
b00000000000000000000000000000111 9
0d
#46
1#
0%
0'
b00000000000000000000000000010100 O
b00000000000000000000000000001100 P
b0000 Q
b0001 R
b00110 T
b11001 U
b11111111111111111111111111111000 V
b00000000000000000000000000000111 W
b0001 Y
b11111110011001011001110011100011 Z
b1100011 [
b1111111 \
b001 ]
b1111 _
b0001 c
1d
b00000000000000000000000000000000 i
b00000000000000000000000000001100 m
b0001 n
b00000000000000000000000000000111 o
b00000000000000000000000000000000 p
#47
0d
#48
0#
1%
1'
b00000000000000000000000000001100 O
b0100 Q
b0000 R
b00000 T
b01010 U
b00000000000000000000000000000000 V
b0000 Y
b00000000000001011000010100010011 Z
b0010011 [
b0000000 \
b000 ]
b0000 _
b1111 c
1d
b00000000000000000000000000010000 m
b0000 n
#49
b00000000000000000000000000000111 8
0d
#50
b00000000000000000000000000001000 *
b00000000000000000000000000000111 N
b00000000000000000000000000010000 O
b00000000000000000000000000010001 P
b00001 T
b01011 U
b00000000000000000000000000000001 V
b00000000000101011000010110010011 Z
1d
b00000000000000000000000000000111 f
b00000000000000000000000000001000 g
b00000000000000000000000000001000 h
b00000000000000000000000000000001 i
b00000000000000000000000000001000 k
b00 l
b00000000000000000000000000010100 m
b00000000000000000000000000000001 p
#51
b00000000000000000000000000001000 9
0d
#52
1#
0%
0'
b00000000000000000000000000010100 O
b00000000000000000000000000001100 P
b0000 Q
b0001 R
b00110 T
b11001 U
b11111111111111111111111111111000 V
b00000000000000000000000000001000 W
b0001 Y
b11111110011001011001110011100011 Z
b1100011 [
b1111111 \
b001 ]
b1111 _
b0001 c
1d
b00000000000000000000000000000000 i
b00000000000000000000000000001100 m
b0001 n
b00000000000000000000000000001000 o
b00000000000000000000000000000000 p
#53
0d
#54
0#
1%
1'
b00000000000000000000000000001100 O
b0100 Q
b0000 R
b00000 T
b01010 U
b00000000000000000000000000000000 V
b0000 Y
b00000000000001011000010100010011 Z
b0010011 [
b0000000 \
b000 ]
b0000 _
b1111 c
1d
b00000000000000000000000000010000 m
b0000 n
#55
b00000000000000000000000000001000 8
0d
#56
b00000000000000000000000000001001 *
b00000000000000000000000000001000 N
b00000000000000000000000000010000 O
b00000000000000000000000000010001 P
b00001 T
b01011 U
b00000000000000000000000000000001 V
b00000000000101011000010110010011 Z
1d
b00000000000000000000000000001000 f
b00000000000000000000000000001001 g
b00000000000000000000000000001001 h
b00000000000000000000000000000001 i
b01 l
b00000000000000000000000000010100 m
b00000000000000000000000000000001 p
#57
b00000000000000000000000000001001 9
0d
#58
1#
0%
0'
b00000000000000000000000000010100 O
b00000000000000000000000000001100 P
b0000 Q
b0001 R
b00110 T
b11001 U
b11111111111111111111111111111000 V
b00000000000000000000000000001001 W
b0001 Y
b11111110011001011001110011100011 Z
b1100011 [
b1111111 \
b001 ]
b1111 _
b0001 c
1d
b00000000000000000000000000000000 i
b00000000000000000000000000001100 m
b0001 n
b00000000000000000000000000001001 o
b00000000000000000000000000000000 p
#59
0d
#60
0#
1%
1'
b00000000000000000000000000001100 O
b0100 Q
b0000 R
b00000 T
b01010 U
b00000000000000000000000000000000 V
b0000 Y
b00000000000001011000010100010011 Z
b0010011 [
b0000000 \
b000 ]
b0000 _
b1111 c
1d
b00000000000000000000000000010000 m
b0000 n
#61
b00000000000000000000000000001001 8
0d
#62
b00000000000000000000000000001010 *
b00000000000000000000000000001001 N
b00000000000000000000000000010000 O
b00000000000000000000000000010001 P
b00001 T
b01011 U
b00000000000000000000000000000001 V
b00000000000101011000010110010011 Z
1d
b00000000000000000000000000001001 f
b00000000000000000000000000001010 g
b00000000000000000000000000001010 h
b00000000000000000000000000000001 i
b10 l
b00000000000000000000000000010100 m
b00000000000000000000000000000001 p
#63
b00000000000000000000000000001010 9
0d
#64
1#
0%
0'
b00000000000000000000000000010100 O
b00000000000000000000000000001100 P
b0000 Q
b0001 R
b00110 T
b11001 U
b11111111111111111111111111111000 V
b00000000000000000000000000001010 W
b0001 Y
b11111110011001011001110011100011 Z
b1100011 [
b1111111 \
b001 ]
b1111 _
b0001 c
1d
b00000000000000000000000000000000 i
b00000000000000000000000000001100 m
b0001 n
b00000000000000000000000000001010 o
b00000000000000000000000000000000 p
#65
0d
#66
0#
1%
1'
b00000000000000000000000000001100 O
b0100 Q
b0000 R
b00000 T
b01010 U
b00000000000000000000000000000000 V
b0000 Y
b00000000000001011000010100010011 Z
b0010011 [
b0000000 \
b000 ]
b0000 _
b1111 c
1d
b00000000000000000000000000010000 m
b0000 n
#67
b00000000000000000000000000001010 8
0d
#68
b00000000000000000000000000001011 *
b00000000000000000000000000001010 N
b00000000000000000000000000010000 O
b00000000000000000000000000010001 P
b00001 T
b01011 U
b00000000000000000000000000000001 V
b00000000000101011000010110010011 Z
1d
b00000000000000000000000000001010 f
b00000000000000000000000000001011 g
b00000000000000000000000000001011 h
b00000000000000000000000000000001 i
b11 l
b00000000000000000000000000010100 m
b00000000000000000000000000000001 p
#69
b00000000000000000000000000001011 9
0d
#70
1#
0%
0'
b00000000000000000000000000010100 O
b00000000000000000000000000001100 P
b0000 Q
b0001 R
b00110 T
b11001 U
b11111111111111111111111111111000 V
b00000000000000000000000000001011 W
b0001 Y
b11111110011001011001110011100011 Z
b1100011 [
b1111111 \
b001 ]
b1111 _
b0001 c
1d
b00000000000000000000000000000000 i
b00000000000000000000000000001100 m
b0001 n
b00000000000000000000000000001011 o
b00000000000000000000000000000000 p
#71
0d
#72
0#
1%
1'
b00000000000000000000000000001100 O
b0100 Q
b0000 R
b00000 T
b01010 U
b00000000000000000000000000000000 V
b0000 Y
b00000000000001011000010100010011 Z
b0010011 [
b0000000 \
b000 ]
b0000 _
b1111 c
1d
b00000000000000000000000000010000 m
b0000 n
#73
b00000000000000000000000000001011 8
0d
#74
b00000000000000000000000000001100 *
b00000000000000000000000000001011 N
b00000000000000000000000000010000 O
b00000000000000000000000000010001 P
b00001 T
b01011 U
b00000000000000000000000000000001 V
b00000000000101011000010110010011 Z
1d
b00000000000000000000000000001011 f
b00000000000000000000000000001100 g
b00000000000000000000000000001100 h
b00000000000000000000000000000001 i
b00000000000000000000000000001100 k
b00 l
b00000000000000000000000000010100 m
b00000000000000000000000000000001 p
#75
b00000000000000000000000000001100 9
0d
#76
1#
0%
0'
b00000000000000000000000000010100 O
b00000000000000000000000000001100 P
b0000 Q
b0001 R
b00110 T
b11001 U
b11111111111111111111111111111000 V
b00000000000000000000000000001100 W
b0001 Y
b11111110011001011001110011100011 Z
b1100011 [
b1111111 \
b001 ]
b1111 _
b0001 c
1d
b00000000000000000000000000000000 i
b00000000000000000000000000001100 m
b0001 n
b00000000000000000000000000001100 o
b00000000000000000000000000000000 p
#77
0d
#78
0#
1%
1'
b00000000000000000000000000001100 O
b0100 Q
b0000 R
b00000 T
b01010 U
b00000000000000000000000000000000 V
b0000 Y
b00000000000001011000010100010011 Z
b0010011 [
b0000000 \
b000 ]
b0000 _
b1111 c
1d
b00000000000000000000000000010000 m
b0000 n
#79
b00000000000000000000000000001100 8
0d
#80
b00000000000000000000000000001101 *
b00000000000000000000000000001100 N
b00000000000000000000000000010000 O
b00000000000000000000000000010001 P
b00001 T
b01011 U
b00000000000000000000000000000001 V
b00000000000101011000010110010011 Z
1d
b00000000000000000000000000001100 f
b00000000000000000000000000001101 g
b00000000000000000000000000001101 h
b00000000000000000000000000000001 i
b01 l
b00000000000000000000000000010100 m
b00000000000000000000000000000001 p
#81
b00000000000000000000000000001101 9
0d
#82
1#
0%
0'
b00000000000000000000000000010100 O
b00000000000000000000000000001100 P
b0000 Q
b0001 R
b00110 T
b11001 U
b11111111111111111111111111111000 V
b00000000000000000000000000001101 W
b0001 Y
b11111110011001011001110011100011 Z
b1100011 [
b1111111 \
b001 ]
b1111 _
b0001 c
1d
b00000000000000000000000000000000 i
b00000000000000000000000000001100 m
b0001 n
b00000000000000000000000000001101 o
b00000000000000000000000000000000 p
#83
0d
#84
0#
1%
1'
b00000000000000000000000000001100 O
b0100 Q
b0000 R
b00000 T
b01010 U
b00000000000000000000000000000000 V
b0000 Y
b00000000000001011000010100010011 Z
b0010011 [
b0000000 \
b000 ]
b0000 _
b1111 c
1d
b00000000000000000000000000010000 m
b0000 n
#85
b00000000000000000000000000001101 8
0d
#86
b00000000000000000000000000001110 *
b00000000000000000000000000001101 N
b00000000000000000000000000010000 O
b00000000000000000000000000010001 P
b00001 T
b01011 U
b00000000000000000000000000000001 V
b00000000000101011000010110010011 Z
1d
b00000000000000000000000000001101 f
b00000000000000000000000000001110 g
b00000000000000000000000000001110 h
b00000000000000000000000000000001 i
b10 l
b00000000000000000000000000010100 m
b00000000000000000000000000000001 p
#87
b00000000000000000000000000001110 9
0d
#88
1#
0%
0'
b00000000000000000000000000010100 O
b00000000000000000000000000001100 P
b0000 Q
b0001 R
b00110 T
b11001 U
b11111111111111111111111111111000 V
b00000000000000000000000000001110 W
b0001 Y
b11111110011001011001110011100011 Z
b1100011 [
b1111111 \
b001 ]
b1111 _
b0001 c
1d
b00000000000000000000000000000000 i
b00000000000000000000000000001100 m
b0001 n
b00000000000000000000000000001110 o
b00000000000000000000000000000000 p
#89
0d
#90
0#
1%
1'
b00000000000000000000000000001100 O
b0100 Q
b0000 R
b00000 T
b01010 U
b00000000000000000000000000000000 V
b0000 Y
b00000000000001011000010100010011 Z
b0010011 [
b0000000 \
b000 ]
b0000 _
b1111 c
1d
b00000000000000000000000000010000 m
b0000 n
#91
b00000000000000000000000000001110 8
0d
#92
b00000000000000000000000000001111 *
b00000000000000000000000000001110 N
b00000000000000000000000000010000 O
b00000000000000000000000000010001 P
b00001 T
b01011 U
b00000000000000000000000000000001 V
b00000000000101011000010110010011 Z
1d
b00000000000000000000000000001110 f
b00000000000000000000000000001111 g
b00000000000000000000000000001111 h
b00000000000000000000000000000001 i
b11 l
b00000000000000000000000000010100 m
b00000000000000000000000000000001 p
#93
b00000000000000000000000000001111 9
0d
#94
1#
0%
0'
b00000000000000000000000000010100 O
b00000000000000000000000000001100 P
b0000 Q
b0001 R
b00110 T
b11001 U
b11111111111111111111111111111000 V
b00000000000000000000000000001111 W
b0001 Y
b11111110011001011001110011100011 Z
b1100011 [
b1111111 \
b001 ]
b1111 _
b0001 c
1d
b00000000000000000000000000000000 i
b00000000000000000000000000001100 m
b0001 n
b00000000000000000000000000001111 o
b00000000000000000000000000000000 p
#95
0d
