rtl/top.vcd
$version Generated by VerilatedVcd $end
$date Fri Dec 15 00:34:48 2023 $end
$timescale 1ps $end

 $scope module TOP $end
  $var wire  1 t! iClk $end
  $var wire  1 u! iRst $end
  $var wire 32 v! oRega0 [31:0] $end
  $scope module top $end
   $var wire  4 R! alu_control_d [3:0] $end
   $var wire  4 - alu_control_e [3:0] $end
   $var wire 32 {! alu_op1_e [31:0] $end
   $var wire  2 t alu_op1_select [1:0] $end
   $var wire 32 |! alu_op2_e [31:0] $end
   $var wire  2 u alu_op2_select [1:0] $end
   $var wire 32 z! alu_result_e [31:0] $end
   $var wire 32 6 alu_result_m [31:0] $end
   $var wire 32 = alu_result_w [31:0] $end
   $var wire  1 S! alu_src_d $end
   $var wire  1 / alu_src_e $end
   $var wire 32 q! comparator_op1_d [31:0] $end
   $var wire  1 W! comparator_op1_select $end
   $var wire 32 r! comparator_op2_d [31:0] $end
   $var wire  1 X! comparator_op2_select $end
   $var wire  1 o! flush_d $end
   $var wire  1 \! flush_e $end
   $var wire  1 Y! forward_reg_offset $end
   $var wire  1 t! iClk $end
   $var wire  1 u! iRst $end
   $var wire 32 L! imm_ext_d [31:0] $end
   $var wire 32 ( imm_ext_e [31:0] $end
   $var wire 32 5 imm_ext_m [31:0] $end
   $var wire 32 ; imm_ext_w [31:0] $end
   $var wire 32 K! instruction_d [31:0] $end
   $var wire 32 j! instruction_f [31:0] $end
   $var wire  4 J! instruction_sub_type_d [3:0] $end
   $var wire  4 & instruction_sub_type_e [3:0] $end
   $var wire  4 3 instruction_sub_type_m [3:0] $end
   $var wire  4 I! instruction_type_d [3:0] $end
   $var wire  4 % instruction_type_e [3:0] $end
   $var wire  4 2 instruction_type_m [3:0] $end
   $var wire 32 k! jb_target [31:0] $end
   $var wire 32 s mem_data_in_e [31:0] $end
   $var wire 32 8 mem_data_in_m [31:0] $end
   $var wire 32 A mem_data_out_m [31:0] $end
   $var wire 32 < mem_data_out_w [31:0] $end
   $var wire  1 T! mem_write_en_d $end
   $var wire  1 1 mem_write_en_e $end
   $var wire  1 9 mem_write_en_m $end
   $var wire 32 r oRega0 [31:0] $end
   $var wire 32 # pc_d [31:0] $end
   $var wire 32 ' pc_e [31:0] $end
   $var wire 32 w! pc_f [31:0] $end
   $var wire 32 4 pc_m [31:0] $end
   $var wire  1 y! pc_src_d $end
   $var wire 32 : pc_w [31:0] $end
   $var wire  5 O! rd_d [4:0] $end
   $var wire  5 Z! rd_e [4:0] $end
   $var wire  5 ]! rd_m [4:0] $end
   $var wire  5 _! rd_w [4:0] $end
   $var wire  1 p! recover_pc_d $end
   $var wire  1 0 recover_pc_e $end
   $var wire 32 P! reg_data_in_w [31:0] $end
   $var wire 32 ? reg_data_out1_d [31:0] $end
   $var wire 32 ) reg_data_out1_e [31:0] $end
   $var wire 32 @ reg_data_out2_d [31:0] $end
   $var wire 32 * reg_data_out2_e [31:0] $end
   $var wire 32 x! reg_jump_offset_d [31:0] $end
   $var wire  1 U! reg_write_en_d $end
   $var wire  1 [! reg_write_en_e $end
   $var wire  1 ^! reg_write_en_m $end
   $var wire  1 `! reg_write_en_w $end
   $var wire  3 Q! result_src_d [2:0] $end
   $var wire  3 . result_src_e [2:0] $end
   $var wire  3 7 result_src_m [2:0] $end
   $var wire  3 > result_src_w [2:0] $end
   $var wire  5 M! rs1_d [4:0] $end
   $var wire  5 + rs1_e [4:0] $end
   $var wire  5 N! rs2_d [4:0] $end
   $var wire  5 , rs2_e [4:0] $end
   $var wire  1 V! stall_d $end
   $var wire  1 H! stall_f $end
   $var wire  1 $ take_branch_d $end
   $var wire  1 l! take_jb_f $end
   $var wire 32 n! target_pc_d [31:0] $end
   $var wire  1 v zero_e $end
   $scope module Alu $end
    $var wire 32 $" DATA_WIDTH [31:0] $end
    $var wire 32 %" OP_WIDTH [31:0] $end
    $var wire  4 !" iAluControl [3:0] $end
    $var wire 32 "" iAluOp1 [31:0] $end
    $var wire 32 #" iAluOp2 [31:0] $end
    $var wire 32 z! oAluResult [31:0] $end
    $var wire  1 v oZero $end
    $var wire 32 G! out [31:0] $end
   $upscope $end
   $scope module AluOpForwarder $end
    $var wire 32 6 iAluResultOutM [31:0] $end
    $var wire  2 t iForwardAluOp1 [1:0] $end
    $var wire  2 u iForwardAluOp2 [1:0] $end
    $var wire  4 2 iInstructionTypeM [3:0] $end
    $var wire 32 ) iRegData1E [31:0] $end
    $var wire 32 * iRegData2E [31:0] $end
    $var wire 32 P! iResultDataW [31:0] $end
    $var wire 32 5 iUpperImmM [31:0] $end
    $var wire 32 ; iUpperImmW [31:0] $end
    $var wire 32 {! oAluOp1 [31:0] $end
    $var wire 32 s oAluOp2 [31:0] $end
   $upscope $end
   $scope module ControlPath $end
    $var wire  3 c! funct3 [2:0] $end
    $var wire  7 b! funct7 [6:0] $end
    $var wire 32 K! iInstruction [31:0] $end
    $var wire  4 J! instruction_sub_type [3:0] $end
    $var wire  4 I! instruction_type [3:0] $end
    $var wire  4 R! oAluControl [3:0] $end
    $var wire  1 S! oAluSrc $end
    $var wire 32 L! oImmExt [31:0] $end
    $var wire  4 J! oInstructionSubType [3:0] $end
    $var wire  4 I! oInstructionType [3:0] $end
    $var wire  1 T! oMemWrite $end
    $var wire  5 O! oRd [4:0] $end
    $var wire  1 U! oRegWrite $end
    $var wire  3 Q! oResultSrc [2:0] $end
    $var wire  5 M! oRs1 [4:0] $end
    $var wire  5 N! oRs2 [4:0] $end
    $var wire  7 a! op_code [6:0] $end
    $scope module AluControlEncoder $end
     $var wire  4 J! iInstructionSubType [3:0] $end
     $var wire  4 I! iInstructionType [3:0] $end
     $var wire  4 R! oAluCtrl [3:0] $end
    $upscope $end
    $scope module ControlSignalDecoder $end
     $var wire  4 J! iInstructionSubType [3:0] $end
     $var wire  4 I! iInstructionType [3:0] $end
     $var wire  1 S! oAluSrc $end
     $var wire  1 T! oMemWrite $end
     $var wire  1 U! oRegWrite $end
     $var wire  3 Q! oResultSrc [2:0] $end
    $upscope $end
    $scope module ImmediateOperandDecoder $end
     $var wire 32 K! iInstruction [31:0] $end
     $var wire  4 J! iInstructionSubType [3:0] $end
     $var wire  4 I! iInstructionType [3:0] $end
     $var wire 32 L! oImmExt [31:0] $end
    $upscope $end
    $scope module InstructionDecoder $end
     $var wire  4 i! b_type [3:0] $end
     $var wire  3 c! iFunct3 [2:0] $end
     $var wire  7 b! iFunct7 [6:0] $end
     $var wire  7 a! iOpCode [6:0] $end
     $var wire  4 e! i_type [3:0] $end
     $var wire  4 I! instruction_type [3:0] $end
     $var wire  4 h! j_type [3:0] $end
     $var wire  4 J! oInstructionSubType [3:0] $end
     $var wire  4 I! oInstructionType [3:0] $end
     $var wire  4 d! r_type [3:0] $end
     $var wire  4 g! s_type [3:0] $end
     $var wire  4 f! u_type [3:0] $end
    $upscope $end
   $upscope $end
   $scope module HazardControl $end
    $var wire  5 Z! iDestRegE [4:0] $end
    $var wire  5 ]! iDestRegM [4:0] $end
    $var wire  5 _! iDestRegW [4:0] $end
    $var wire  4 J! iInstructionSubTypeD [3:0] $end
    $var wire  4 I! iInstructionTypeD [3:0] $end
    $var wire  4 % iInstructionTypeE [3:0] $end
    $var wire  4 2 iInstructionTypeM [3:0] $end
    $var wire  1 [! iRegWriteEnE $end
    $var wire  1 ^! iRegWriteEnM $end
    $var wire  1 `! iRegWriteEnW $end
    $var wire  5 M! iSrcReg1D [4:0] $end
    $var wire  5 + iSrcReg1E [4:0] $end
    $var wire  5 N! iSrcReg2D [4:0] $end
    $var wire  5 , iSrcReg2E [4:0] $end
    $var wire  1 \! oFlushE $end
    $var wire  2 t oForwardAluOp1E [1:0] $end
    $var wire  2 u oForwardAluOp2E [1:0] $end
    $var wire  1 W! oForwardCompOp1D $end
    $var wire  1 X! oForwardCompOp2D $end
    $var wire  1 Y! oForwardRegOffsetD $end
    $var wire  1 V! oStallD $end
    $var wire  1 H! oStallF $end
   $upscope $end
   $scope module InstructionROM $end
    $var wire 32 $" DATA_WIDTH [31:0] $end
    $var wire 32 w! iPC [31:0] $end
    $var wire 32 j! oInstruction [31:0] $end
   $upscope $end
   $scope module JumpBranchHandlerF $end
    $var wire 32 m! branch_target [31:0] $end
    $var wire 32 j! iInstructionF [31:0] $end
    $var wire 32 w! iPCF [31:0] $end
    $var wire 32 k! oJBTarget [31:0] $end
    $var wire  1 l! oTakeJBF $end
   $upscope $end
   $scope module NewMem $end
    $var wire 32 $" DATA_WIDTH [31:0] $end
    $var wire 32 %" INDEX_WIDTH [31:0] $end
    $var wire  8 =! byte1 [7:0] $end
    $var wire  8 >! byte2 [7:0] $end
    $var wire  8 ?! byte3 [7:0] $end
    $var wire  8 @! byte4 [7:0] $end
    $var wire  2 D! byte_offset [1:0] $end
    $var wire 32 z cData [31:0] $end
    $var wire  4 &" cIndex [3:0] $end
    $var wire 26 y cTag [25:0] $end
    $var wire  1 A! cV $end
    $var wire 32 { data_cache_array[0] [31:0] $end
    $var wire 32 '! data_cache_array[10] [31:0] $end
    $var wire 32 (! data_cache_array[11] [31:0] $end
    $var wire 32 )! data_cache_array[12] [31:0] $end
    $var wire 32 *! data_cache_array[13] [31:0] $end
    $var wire 32 +! data_cache_array[14] [31:0] $end
    $var wire 32 ,! data_cache_array[15] [31:0] $end
    $var wire 32 | data_cache_array[1] [31:0] $end
    $var wire 32 } data_cache_array[2] [31:0] $end
    $var wire 32 ~ data_cache_array[3] [31:0] $end
    $var wire 32 !! data_cache_array[4] [31:0] $end
    $var wire 32 "! data_cache_array[5] [31:0] $end
    $var wire 32 #! data_cache_array[6] [31:0] $end
    $var wire 32 $! data_cache_array[7] [31:0] $end
    $var wire 32 %! data_cache_array[8] [31:0] $end
    $var wire 32 &! data_cache_array[9] [31:0] $end
    $var wire 32 6 iAddress [31:0] $end
    $var wire  1 t! iClk $end
    $var wire  4 x iIndex [3:0] $end
    $var wire  4 2 iInstructionType [3:0] $end
    $var wire 32 8 iMemData [31:0] $end
    $var wire  4 3 iMemoryInstructionType [3:0] $end
    $var wire 26 w iTag [25:0] $end
    $var wire  1 9 iWriteEn $end
    $var wire 32 C! oMemData [31:0] $end
    $var wire 32 A ooMemData [31:0] $end
    $var wire 26 -! tag_cache_array[0] [25:0] $end
    $var wire 26 7! tag_cache_array[10] [25:0] $end
    $var wire 26 8! tag_cache_array[11] [25:0] $end
    $var wire 26 9! tag_cache_array[12] [25:0] $end
    $var wire 26 :! tag_cache_array[13] [25:0] $end
    $var wire 26 ;! tag_cache_array[14] [25:0] $end
    $var wire 26 <! tag_cache_array[15] [25:0] $end
    $var wire 26 .! tag_cache_array[1] [25:0] $end
    $var wire 26 /! tag_cache_array[2] [25:0] $end
    $var wire 26 0! tag_cache_array[3] [25:0] $end
    $var wire 26 1! tag_cache_array[4] [25:0] $end
    $var wire 26 2! tag_cache_array[5] [25:0] $end
    $var wire 26 3! tag_cache_array[6] [25:0] $end
    $var wire 26 4! tag_cache_array[7] [25:0] $end
    $var wire 26 5! tag_cache_array[8] [25:0] $end
    $var wire 26 6! tag_cache_array[9] [25:0] $end
    $var wire  1 B valid_cache_array[0] $end
    $var wire  1 L valid_cache_array[10] $end
    $var wire  1 M valid_cache_array[11] $end
    $var wire  1 N valid_cache_array[12] $end
    $var wire  1 O valid_cache_array[13] $end
    $var wire  1 P valid_cache_array[14] $end
    $var wire  1 Q valid_cache_array[15] $end
    $var wire  1 C valid_cache_array[1] $end
    $var wire  1 D valid_cache_array[2] $end
    $var wire  1 E valid_cache_array[3] $end
    $var wire  1 F valid_cache_array[4] $end
    $var wire  1 G valid_cache_array[5] $end
    $var wire  1 H valid_cache_array[6] $end
    $var wire  1 I valid_cache_array[7] $end
    $var wire  1 J valid_cache_array[8] $end
    $var wire  1 K valid_cache_array[9] $end
    $var wire 32 B! word_aligned_address [31:0] $end
   $upscope $end
   $scope module OperandForwarderD $end
    $var wire 32 6 iAluResultOutM [31:0] $end
    $var wire  1 W! iCompOp1Select $end
    $var wire  1 X! iCompOp2Select $end
    $var wire  1 Y! iForwardRegOffset $end
    $var wire 32 ? iRegData1D [31:0] $end
    $var wire 32 @ iRegData2D [31:0] $end
    $var wire 32 q! oCompOp1 [31:0] $end
    $var wire 32 r! oCompOp2 [31:0] $end
    $var wire 32 x! oRegOffset [31:0] $end
   $upscope $end
   $scope module PCRegister $end
    $var wire 32 }! PCNext [31:0] $end
    $var wire 32 k! iBranchTarget [31:0] $end
    $var wire  1 t! iClk $end
    $var wire  1 y! iPCSrcD $end
    $var wire  1 l! iPCSrcF $end
    $var wire  1 p! iRecoverPC $end
    $var wire  1 u! iRst $end
    $var wire  1 H! iStallF $end
    $var wire 32 n! iTargetPC [31:0] $end
    $var wire 32 w! oPC [31:0] $end
   $upscope $end
   $scope module PipelineRegister1 $end
    $var wire  1 t! iClk $end
    $var wire  1 o! iFlushD $end
    $var wire 32 j! iInstructionF [31:0] $end
    $var wire 32 w! iPCF [31:0] $end
    $var wire  1 p! iRecoverPCD $end
    $var wire  1 V! iStallD $end
    $var wire  1 l! iTakeJBF $end
    $var wire 32 K! oInstructionD [31:0] $end
    $var wire 32 # oPCD [31:0] $end
    $var wire  1 0 oRecoverPC $end
    $var wire  1 $ oTakeJBD $end
   $upscope $end
   $scope module PipelineRegister2 $end
    $var wire  4 R! iAluControlD [3:0] $end
    $var wire  1 S! iAluSrcD $end
    $var wire  1 t! iClk $end
    $var wire  1 \! iFlushE $end
    $var wire 32 L! iImmExtD [31:0] $end
    $var wire  4 J! iInstructionSubTypeD [3:0] $end
    $var wire  4 I! iInstructionTypeD [3:0] $end
    $var wire  1 T! iMemWriteEnD $end
    $var wire 32 # iPCD [31:0] $end
    $var wire  5 O! iRdD [4:0] $end
    $var wire 32 ? iRegDataOut1D [31:0] $end
    $var wire 32 @ iRegDataOut2D [31:0] $end
    $var wire  1 U! iRegWriteEnD $end
    $var wire  3 Q! iResultSrcD [2:0] $end
    $var wire  5 M! iRs1D [4:0] $end
    $var wire  5 N! iRs2D [4:0] $end
    $var wire  4 - oAluControlE [3:0] $end
    $var wire  1 / oAluSrcE $end
    $var wire 32 ( oImmExtE [31:0] $end
    $var wire  4 & oInstructionSubTypeE [3:0] $end
    $var wire  4 % oInstructionTypeE [3:0] $end
    $var wire  1 1 oMemWriteEnE $end
    $var wire 32 ' oPCE [31:0] $end
    $var wire  5 Z! oRdE [4:0] $end
    $var wire 32 ) oRegDataOut1E [31:0] $end
    $var wire 32 * oRegDataOut2E [31:0] $end
    $var wire  1 [! oRegWriteEnE $end
    $var wire  3 . oResultSrcE [2:0] $end
    $var wire  5 + oRs1E [4:0] $end
    $var wire  5 , oRs2E [4:0] $end
   $upscope $end
   $scope module PipelineRegister3 $end
    $var wire 32 z! iAluOutE [31:0] $end
    $var wire  1 t! iClk $end
    $var wire  5 Z! iDestRegE [4:0] $end
    $var wire 32 ( iImmExtE [31:0] $end
    $var wire  4 & iInstructionSubTypeE [3:0] $end
    $var wire  4 % iInstructionTypeE [3:0] $end
    $var wire 32 s iMemDataInE [31:0] $end
    $var wire  1 1 iMemWriteEnE $end
    $var wire 32 ' iPCE [31:0] $end
    $var wire  1 [! iRegWriteEnE $end
    $var wire  3 . iResultSrcE [2:0] $end
    $var wire 32 6 oAluOutM [31:0] $end
    $var wire  5 ]! oDestRegM [4:0] $end
    $var wire 32 5 oImmExtM [31:0] $end
    $var wire  4 3 oInstructionSubTypeM [3:0] $end
    $var wire  4 2 oInstructionTypeM [3:0] $end
    $var wire 32 8 oMemDataInM [31:0] $end
    $var wire  1 9 oMemWriteEnM $end
    $var wire 32 4 oPCM [31:0] $end
    $var wire  1 ^! oRegWriteEnM $end
    $var wire  3 7 oResultSrcM [2:0] $end
   $upscope $end
   $scope module PipelineRegister4 $end
    $var wire 32 6 iAluOutM [31:0] $end
    $var wire  1 t! iClk $end
    $var wire  5 ]! iDestRegM [4:0] $end
    $var wire 32 5 iImmExtM [31:0] $end
    $var wire 32 A iMemDataOutM [31:0] $end
    $var wire 32 4 iPCM [31:0] $end
    $var wire  1 ^! iRegWriteEnM $end
    $var wire  3 7 iResultSrcM [2:0] $end
    $var wire 32 = oAluOutW [31:0] $end
    $var wire  5 _! oDestRegW [4:0] $end
    $var wire 32 ; oImmExtW [31:0] $end
    $var wire 32 < oMemDataOutW [31:0] $end
    $var wire 32 : oPCW [31:0] $end
    $var wire  1 `! oRegWriteEnW $end
    $var wire  3 > oResultSrcW [2:0] $end
   $upscope $end
   $scope module RegComparator $end
    $var wire  4 I! iInstructionTypeD [3:0] $end
    $var wire  4 J! iJBTypeD [3:0] $end
    $var wire 32 q! iRegData1D [31:0] $end
    $var wire 32 r! iRegData2D [31:0] $end
    $var wire  1 $ iTakeJBD $end
    $var wire  1 o! oFlushD $end
    $var wire  1 y! oPCSrcD $end
    $var wire  1 p! oRecoverPC $end
   $upscope $end
   $scope module RegisterFile $end
    $var wire 32 '" ADDRESS_WIDTH [31:0] $end
    $var wire 32 $" DATA_WIDTH [31:0] $end
    $var wire 32 E! data_out1 [31:0] $end
    $var wire 32 F! data_out2 [31:0] $end
    $var wire  1 t! iClk $end
    $var wire 32 P! iDataIn [31:0] $end
    $var wire  5 M! iReadAddress1 [4:0] $end
    $var wire  5 N! iReadAddress2 [4:0] $end
    $var wire  5 _! iWriteAddress [4:0] $end
    $var wire  1 `! iWriteEn $end
    $var wire 32 ? oRegData1 [31:0] $end
    $var wire 32 @ oRegData2 [31:0] $end
    $var wire 32 r oRega0 [31:0] $end
    $var wire 32 R ram_array[0] [31:0] $end
    $var wire 32 \ ram_array[10] [31:0] $end
    $var wire 32 ] ram_array[11] [31:0] $end
    $var wire 32 ^ ram_array[12] [31:0] $end
    $var wire 32 _ ram_array[13] [31:0] $end
    $var wire 32 ` ram_array[14] [31:0] $end
    $var wire 32 a ram_array[15] [31:0] $end
    $var wire 32 b ram_array[16] [31:0] $end
    $var wire 32 c ram_array[17] [31:0] $end
    $var wire 32 d ram_array[18] [31:0] $end
    $var wire 32 e ram_array[19] [31:0] $end
    $var wire 32 S ram_array[1] [31:0] $end
    $var wire 32 f ram_array[20] [31:0] $end
    $var wire 32 g ram_array[21] [31:0] $end
    $var wire 32 h ram_array[22] [31:0] $end
    $var wire 32 i ram_array[23] [31:0] $end
    $var wire 32 j ram_array[24] [31:0] $end
    $var wire 32 k ram_array[25] [31:0] $end
    $var wire 32 l ram_array[26] [31:0] $end
    $var wire 32 m ram_array[27] [31:0] $end
    $var wire 32 n ram_array[28] [31:0] $end
    $var wire 32 o ram_array[29] [31:0] $end
    $var wire 32 T ram_array[2] [31:0] $end
    $var wire 32 p ram_array[30] [31:0] $end
    $var wire 32 q ram_array[31] [31:0] $end
    $var wire 32 U ram_array[3] [31:0] $end
    $var wire 32 V ram_array[4] [31:0] $end
    $var wire 32 W ram_array[5] [31:0] $end
    $var wire 32 X ram_array[6] [31:0] $end
    $var wire 32 Y ram_array[7] [31:0] $end
    $var wire 32 Z ram_array[8] [31:0] $end
    $var wire 32 [ ram_array[9] [31:0] $end
   $upscope $end
   $scope module ResultSelector $end
    $var wire 32 = iAluResultW [31:0] $end
    $var wire 32 < iMemDataOutW [31:0] $end
    $var wire 32 : iPCW [31:0] $end
    $var wire  3 > iResultSrcW [2:0] $end
    $var wire 32 ; iUpperImmW [31:0] $end
    $var wire 32 P! oRegDataInW [31:0] $end
   $upscope $end
   $scope module TargetPCAdder $end
    $var wire 32 L! iImmExt [31:0] $end
    $var wire  4 J! iInstructionSubType [3:0] $end
    $var wire  4 I! iInstructionType [3:0] $end
    $var wire 32 # iPCD [31:0] $end
    $var wire  1 ~! iRecoverPCD $end
    $var wire 32 x! iRegOffset [31:0] $end
    $var wire 32 s! jb_target [31:0] $end
    $var wire 32 n! oPCTarget [31:0] $end
   $upscope $end
  $upscope $end
 $upscope $end
$enddefinitions $end


#0
b00000000000000000000000000000000 #
0$
b0000 %
b0000 &
b00000000000000000000000000000000 '
b00000000000000000000000000000000 (
b00000000000000000000000000000000 )
b00000000000000000000000000000000 *
b00000 +
b00000 ,
b0000 -
b000 .
0/
00
01
b0000 2
b0000 3
b00000000000000000000000000000000 4
b00000000000000000000000000000000 5
b00000000000000000000000000000000 6
b000 7
b00000000000000000000000000000000 8
09
b00000000000000000000000000000000 :
b00000000000000000000000000000000 ;
b00000000000000000000000000000000 <
b00000000000000000000000000000000 =
b000 >
b00000000000000000000000000000000 ?
b00000000000000000000000000000000 @
b00000000000000000000000000000000 A
0B
0C
0D
0E
0F
0G
0H
0I
0J
0K
0L
0M
0N
0O
0P
0Q
b00000000000000000000000000000000 R
b00000000000000000000000000000000 S
b00000000000000000000000000000000 T
b00000000000000000000000000000000 U
b00000000000000000000000000000000 V
b00000000000000000000000000000000 W
b00000000000000000000000000000000 X
b00000000000000000000000000000000 Y
b00000000000000000000000000000000 Z
b00000000000000000000000000000000 [
b00000000000000000000000000000000 \
b00000000000000000000000000000000 ]
b00000000000000000000000000000000 ^
b00000000000000000000000000000000 _
b00000000000000000000000000000000 `
b00000000000000000000000000000000 a
b00000000000000000000000000000000 b
b00000000000000000000000000000000 c
b00000000000000000000000000000000 d
b00000000000000000000000000000000 e
b00000000000000000000000000000000 f
b00000000000000000000000000000000 g
b00000000000000000000000000000000 h
b00000000000000000000000000000000 i
b00000000000000000000000000000000 j
b00000000000000000000000000000000 k
b00000000000000000000000000000000 l
b00000000000000000000000000000000 m
b00000000000000000000000000000000 n
b00000000000000000000000000000000 o
b00000000000000000000000000000000 p
b00000000000000000000000000000000 q
b00000000000000000000000000000000 r
b00000000000000000000000000000000 s
b00 t
b00 u
0v
b00000000000000000000000000 w
b0000 x
b00000000000000000000000000 y
b00000000000000000000000000000000 z
b00000000000000000000000000000000 {
b00000000000000000000000000000000 |
b00000000000000000000000000000000 }
b00000000000000000000000000000000 ~
b00000000000000000000000000000000 !!
b00000000000000000000000000000000 "!
b00000000000000000000000000000000 #!
b00000000000000000000000000000000 $!
b00000000000000000000000000000000 %!
b00000000000000000000000000000000 &!
b00000000000000000000000000000000 '!
b00000000000000000000000000000000 (!
b00000000000000000000000000000000 )!
b00000000000000000000000000000000 *!
b00000000000000000000000000000000 +!
b00000000000000000000000000000000 ,!
b00000000000000000000000000 -!
b00000000000000000000000000 .!
b00000000000000000000000000 /!
b00000000000000000000000000 0!
b00000000000000000000000000 1!
b00000000000000000000000000 2!
b00000000000000000000000000 3!
b00000000000000000000000000 4!
b00000000000000000000000000 5!
b00000000000000000000000000 6!
b00000000000000000000000000 7!
b00000000000000000000000000 8!
b00000000000000000000000000 9!
b00000000000000000000000000 :!
b00000000000000000000000000 ;!
b00000000000000000000000000 <!
b00000000 =!
b00000000 >!
b00000000 ?!
b00000000 @!
0A!
b00000000000000000000000000000000 B!
b00000000000000000000000000000000 C!
b00 D!
b00000000000000000000000000000000 E!
b00000000000000000000000000000000 F!
b00000000000000000000000000000000 G!
0H!
b0000 I!
b0000 J!
b00000000000000000000000000000000 K!
b00000000000000000000000000000000 L!
b00000 M!
b00000 N!
b00000 O!
b00000000000000000000000000000000 P!
b000 Q!
b1111 R!
0S!
0T!
0U!
0V!
0W!
0X!
0Y!
b00000 Z!
0[!
0\!
b00000 ]!
0^!
b00000 _!
0`!
b0000000 a!
b0000000 b!
b000 c!
b0000 d!
b0000 e!
b0000 f!
b0000 g!
b0000 h!
b0000 i!
b00000000000000000000000000000000 j!
b00000000000000000000000000000000 k!
0l!
b00000000000000000000000000000000 m!
b00000000000000000000000000000000 n!
0o!
0p!
b00000000000000000000000000000000 q!
b00000000000000000000000000000000 r!
b00000000000000000000000000000000 s!
1t!
0u!
b00000000000000000000000000000000 v!
b00000000000000000000000000000000 w!
b00000000000000000000000000000000 x!
1y!
b00000000000000000000000000000000 z!
b00000000000000000000000000000000 {!
b00000000000000000000000000000000 |!
b00000000000000000000000000000000 }!
0~!
b0000 !"
b00000000000000000000000000000000 ""
b00000000000000000000000000000000 #"
b00000000000000000000000000100000 $"
b00000000000000000000000000000100 %"
b0000 &"
b00000000000000000000000000000101 '"
#1
1v
b1111 I!
b1111 J!
b00000001000000000000000011101111 j!
b00000000000000000000000000010000 k!
1l!
b00000000000000000000100000000000 m!
0t!
0y!
b00000000000000000000000000010000 }!
#2
1$
b1111 %
b1111 &
b1111 -
0v
b00000000000000000000000000000101 G!
b0110 I!
b0001 J!
b00000001000000000000000011101111 K!
b00000000000000000000000000010000 L!
b10000 N!
b00001 O!
b010 Q!
1U!
b1101111 a!
b1111 d!
b1111 e!
b1111 f!
b1111 g!
b0001 h!
b1111 i!
b00010000000000000000010110010011 j!
b00000000000000000000000000000000 k!
0l!
b00000000000000000000100100011010 m!
b00000000000000000000000000010000 n!
b00000000000000000000000000010000 s!
1t!
b00000000000000000000000000010000 w!
b00000000000000000000000000000101 z!
b00000000000000000000000000010100 }!
b1111 !"
#3
0t!
#4
b00000000000000000000000000010000 #
0$
b0110 %
b0001 &
b00000000000000000000000000010000 (
b10000 ,
b010 .
b1111 2
b1111 3
b00000000000000000000000000000101 6
b0001 x
b00000000000000000000000000000100 B!
b01 D!
b0100 I!
b0000 J!
b00010000000000000000010110010011 K!
b00000000000000000000000100000000 L!
b00000 N!
b01011 O!
b000 Q!
b0000 R!
1S!
b00001 Z!
1[!
b0010011 a!
b0001000 b!
b0000 e!
b1111 h!
b11111111111101011000010110010011 j!
b11111111111111111111111111111110 m!
b00000000000000000000000100010000 n!
b00000000000000000000000100010000 s!
1t!
b00000000000000000000000000010100 w!
b00000000000000000000000000011000 }!
#5
0t!
#6
b00000000000000000000000000010100 #
b0100 %
b0000 &
b00000000000000000000000000010000 '
b00000000000000000000000100000000 (
b00000 ,
b0000 -
b000 .
1/
b0110 2
b0001 3
b00000000000000000000000000010000 5
b010 7
b00000000000000000000000000000101 =
b00000000000000000000000100000000 G!
b11111111111101011000010110010011 K!
b11111111111111111111111111111111 L!
b01011 M!
b11111 N!
b00000000000000000000000000000101 P!
b01011 Z!
b00001 ]!
1^!
b1111111 b!
b00010000000001011000000000100011 j!
b00000000000000000000000100011000 m!
b00000000000000000000000000010011 n!
b00000000000000000000000000010011 s!
1t!
b00000000000000000000000000011000 w!
b00000000000000000000000100000000 z!
b00000000000000000000000100000000 |!
b00000000000000000000000000011100 }!
b0000 !"
b00000000000000000000000100000000 #"
#7
0t!
#8
b00000000000000000000000000011000 #
b00000000000000000000000000010100 '
b11111111111111111111111111111111 (
b01011 +
b11111 ,
b0100 2
b0000 3
b00000000000000000000000000010000 4
b00000000000000000000000100000000 5
b00000000000000000000000100000000 6
b000 7
b00000000000000000000000000010000 ;
b010 >
1B
b00000000000000000000000000000100 S
b01 t
b00000000000000000000000100 w
b0000 x
b00000000000000000000000100 y
b00000000000000000000000100 -!
1A!
b00000000000000000000000100000000 B!
b00 D!
b00000000000000000000000011111111 G!
b0010 I!
b00010000000001011000000000100011 K!
b00000000000000000000000100000000 L!
b00000 N!
b00000 O!
b00000000000000000000000000000100 P!
1T!
0U!
b01011 ]!
b00001 _!
1`!
b0100011 a!
b0001000 b!
b1111 e!
b0000 g!
b11111110000001011001110011100011 j!
b00000000000000000000000000010100 k!
1l!
b00000000000000000000000000010100 m!
b00000000000000000000000100011000 n!
b00000000000000000000000100011000 s!
1t!
b00000000000000000000000000011100 w!
b00000000000000000000000011111111 z!
b00000000000000000000000100000000 {!
b11111111111111111111111111111111 |!
b00000000000000000000000000010100 }!
b00000000000000000000000100000000 ""
b11111111111111111111111111111111 #"
#9
0t!
#10
b00000000000000000000000000011100 #
1$
b0010 %
b00000000000000000000000000011000 '
b00000000000000000000000100000000 (
b00000 ,
11
b00000000000000000000000000010100 4
b11111111111111111111111111111111 5
b00000000000000000000000011111111 6
b00000000000000000000000000010000 :
b00000000000000000000000100000000 ;
b00000000000000000000000100000000 =
b000 >
1Q
b00000000000000000000000011 w
b1111 x
b00000000000000000000000011 y
b00000000000000000000000011 <!
b00000000000000000000000011111100 B!
b11 D!
b00000000000000000000000100000000 E!
b00000000000000000000000111111111 G!
b0000 I!
b0001 J!
b11111110000001011001110011100011 K!
b11111111111111111111111111111000 L!
b11001 O!
b00000000000000000000000100000000 P!
b1111 R!
0S!
0T!
1W!
b00000 Z!
0[!
b01011 _!
b1100011 a!
b1111111 b!
b001 c!
b1111 g!
b0001 i!
b11111111111101011000010110010011 j!
b00000000000000000000000000000000 k!
0l!
b11111111111111111111111111111110 m!
b00000000000000000000000000010100 n!
b00000000000000000000000011111111 q!
b00000000000000000000000000010100 s!
1t!
b00000000000000000000000000010100 w!
b00000000000000000000000111111111 z!
b00000000000000000000000011111111 {!
b00000000000000000000000100000000 |!
b00000000000000000000000000011000 }!
b00000000000000000000000011111111 ""
b00000000000000000000000100000000 #"
#11
b00000000000000000000000100000000 ?
0t!
b00000000000000000000000100000000 x!
