top.vcd
$version Generated by VerilatedVcd $end
$timescale 1ps $end

 $scope module TOP $end
  $var wire  1 f iClk $end
  $var wire  1 g iRst $end
  $var wire 32 h oDataOut [31:0] $end
  $scope module top $end
   $var wire  4 [ alu_control [3:0] $end
   $var wire 32 / alu_op1 [31:0] $end
   $var wire 32 k alu_op2 [31:0] $end
   $var wire 32 j alu_result [31:0] $end
   $var wire  1 ( alu_src $end
   $var wire  1 f iClk $end
   $var wire  1 g iRst $end
   $var wire 32 Z imm_ext [31:0] $end
   $var wire  4 V instruction_sub_type [3:0] $end
   $var wire  4 U instruction_type [3:0] $end
   $var wire 32 0 mem_data_in [31:0] $end
   $var wire 32 1 mem_data_out [31:0] $end
   $var wire  1 ' mem_write_en $end
   $var wire 32 # oDataOut [31:0] $end
   $var wire 32 T pc [31:0] $end
   $var wire  1 $ pc_src $end
   $var wire  5 Y rd [4:0] $end
   $var wire 32 # reg_data_in [31:0] $end
   $var wire 32 / reg_data_out1 [31:0] $end
   $var wire 32 0 reg_data_out2 [31:0] $end
   $var wire  1 & reg_write_en $end
   $var wire  3 ) result_src [2:0] $end
   $var wire  5 W rs1 [4:0] $end
   $var wire  5 X rs2 [4:0] $end
   $var wire 32 i target_pc [31:0] $end
   $var wire  1 % zero $end
   $scope module Alu $end
    $var wire 32 p DATA_WIDTH [31:0] $end
    $var wire 32 r OP_WIDTH [31:0] $end
    $var wire  4 m iAluControl [3:0] $end
    $var wire 32 n iAluOp1 [31:0] $end
    $var wire 32 o iAluOp2 [31:0] $end
    $var wire 32 j oAluResult [31:0] $end
    $var wire  1 % oZero $end
    $var wire 32 . out [31:0] $end
   $upscope $end
   $scope module ControlUnit $end
    $var wire 32 \ current_instruction [31:0] $end
    $var wire 32 T iPC [31:0] $end
    $var wire  1 % iZero $end
    $var wire  4 [ oAluControl [3:0] $end
    $var wire  1 ( oAluSrc $end
    $var wire 32 Z oImmExt [31:0] $end
    $var wire  4 V oInstructionSubType [3:0] $end
    $var wire  4 U oInstructionType [3:0] $end
    $var wire  1 ' oMemWrite $end
    $var wire  1 $ oPCSrc $end
    $var wire  5 Y oRd [4:0] $end
    $var wire  1 & oRegWrite $end
    $var wire  3 ) oResultSrc [2:0] $end
    $var wire  5 W oRs1 [4:0] $end
    $var wire  5 X oRs2 [4:0] $end
    $scope module ControlPath $end
     $var wire  3 _ funct3 [2:0] $end
     $var wire  7 ^ funct7 [6:0] $end
     $var wire 32 \ iInstruction [31:0] $end
     $var wire  1 % iZero $end
     $var wire  4 V instruction_sub_type [3:0] $end
     $var wire  4 U instruction_type [3:0] $end
     $var wire  4 [ oAluControl [3:0] $end
     $var wire  1 ( oAluSrc $end
     $var wire 32 Z oImmExt [31:0] $end
     $var wire  4 V oInstructionSubType [3:0] $end
     $var wire  4 U oInstructionType [3:0] $end
     $var wire  1 ' oMemWrite $end
     $var wire  1 $ oPCSrc $end
     $var wire  5 Y oRd [4:0] $end
     $var wire  1 & oRegWrite $end
     $var wire  3 ) oResultSrc [2:0] $end
     $var wire  5 W oRs1 [4:0] $end
     $var wire  5 X oRs2 [4:0] $end
     $var wire  7 ] op_code [6:0] $end
     $scope module AluControlEncoder $end
      $var wire  4 V iInstructionSubType [3:0] $end
      $var wire  4 U iInstructionType [3:0] $end
      $var wire  4 [ oAluCtrl [3:0] $end
     $upscope $end
     $scope module ControlSignalDecoder $end
      $var wire  4 V iInstructionSubType [3:0] $end
      $var wire  4 U iInstructionType [3:0] $end
      $var wire  1 % iZero $end
      $var wire  1 ( oAluSrc $end
      $var wire  1 ' oMemWrite $end
      $var wire  1 $ oPCSrc $end
      $var wire  1 & oRegWrite $end
      $var wire  3 ) oResultSrc [2:0] $end
     $upscope $end
     $scope module ImmediateOperandDecoder $end
      $var wire 32 \ iInstruction [31:0] $end
      $var wire  4 V iInstructionSubType [3:0] $end
      $var wire  4 U iInstructionType [3:0] $end
      $var wire 32 Z oImmExt [31:0] $end
     $upscope $end
     $scope module InstructionDecoder $end
      $var wire  4 e b_type [3:0] $end
      $var wire  3 _ iFunct3 [2:0] $end
      $var wire  7 ^ iFunct7 [6:0] $end
      $var wire  7 ] iOpCode [6:0] $end
      $var wire  4 a i_type [3:0] $end
      $var wire  4 U instruction_type [3:0] $end
      $var wire  4 d j_type [3:0] $end
      $var wire  4 V oInstructionSubType [3:0] $end
      $var wire  4 U oInstructionType [3:0] $end
      $var wire  4 ` r_type [3:0] $end
      $var wire  4 c s_type [3:0] $end
      $var wire  4 b u_type [3:0] $end
     $upscope $end
    $upscope $end
    $scope module InstructionMem $end
     $var wire 32 p DATA_WIDTH [31:0] $end
     $var wire 32 T iPC [31:0] $end
     $var wire 32 \ oInstruction [31:0] $end
    $upscope $end
   $upscope $end
   $scope module DataMemory $end
    $var wire 32 p ADDRESS_WIDTH [31:0] $end
    $var wire 32 p DATA_WIDTH [31:0] $end
    $var wire  2 - byte_offset [1:0] $end
    $var wire 32 j iAddress [31:0] $end
    $var wire  1 f iClk $end
    $var wire  4 U iInstructionType [3:0] $end
    $var wire 32 0 iMemData [31:0] $end
    $var wire  4 V iMemoryInstructionType [3:0] $end
    $var wire  1 ' iWriteEn $end
    $var wire 32 2 mem_array[-1] [31:0] $end
    $var wire 32 3 mem_array[0] [31:0] $end
    $var wire 32 * mem_cell [31:0] $end
    $var wire 32 + mem_data [31:0] $end
    $var wire 32 1 oMemData [31:0] $end
    $var wire 32 , word_aligned_address [31:0] $end
   $upscope $end
   $scope module PCRegister $end
    $var wire 32 l PCNext [31:0] $end
    $var wire  1 f iClk $end
    $var wire  1 $ iPCSrc $end
    $var wire  1 g iRst $end
    $var wire 32 i iTargetPC [31:0] $end
    $var wire 32 T oPC [31:0] $end
   $upscope $end
   $scope module RegisterFile $end
    $var wire 32 q ADDRESS_WIDTH [31:0] $end
    $var wire 32 p DATA_WIDTH [31:0] $end
    $var wire  1 f iClk $end
    $var wire 32 # iDataIn [31:0] $end
    $var wire  5 W iReadAddress1 [4:0] $end
    $var wire  5 X iReadAddress2 [4:0] $end
    $var wire  5 Y iWriteAddress [4:0] $end
    $var wire  1 & iWriteEn $end
    $var wire 32 / oRegData1 [31:0] $end
    $var wire 32 0 oRegData2 [31:0] $end
    $var wire 32 4 ram_array[0] [31:0] $end
    $var wire 32 > ram_array[10] [31:0] $end
    $var wire 32 ? ram_array[11] [31:0] $end
    $var wire 32 @ ram_array[12] [31:0] $end
    $var wire 32 A ram_array[13] [31:0] $end
    $var wire 32 B ram_array[14] [31:0] $end
    $var wire 32 C ram_array[15] [31:0] $end
    $var wire 32 D ram_array[16] [31:0] $end
    $var wire 32 E ram_array[17] [31:0] $end
    $var wire 32 F ram_array[18] [31:0] $end
    $var wire 32 G ram_array[19] [31:0] $end
    $var wire 32 5 ram_array[1] [31:0] $end
    $var wire 32 H ram_array[20] [31:0] $end
    $var wire 32 I ram_array[21] [31:0] $end
    $var wire 32 J ram_array[22] [31:0] $end
    $var wire 32 K ram_array[23] [31:0] $end
    $var wire 32 L ram_array[24] [31:0] $end
    $var wire 32 M ram_array[25] [31:0] $end
    $var wire 32 N ram_array[26] [31:0] $end
    $var wire 32 O ram_array[27] [31:0] $end
    $var wire 32 P ram_array[28] [31:0] $end
    $var wire 32 Q ram_array[29] [31:0] $end
    $var wire 32 6 ram_array[2] [31:0] $end
    $var wire 32 R ram_array[30] [31:0] $end
    $var wire 32 S ram_array[31] [31:0] $end
    $var wire 32 7 ram_array[3] [31:0] $end
    $var wire 32 8 ram_array[4] [31:0] $end
    $var wire 32 9 ram_array[5] [31:0] $end
    $var wire 32 : ram_array[6] [31:0] $end
    $var wire 32 ; ram_array[7] [31:0] $end
    $var wire 32 < ram_array[8] [31:0] $end
    $var wire 32 = ram_array[9] [31:0] $end
   $upscope $end
   $scope module ResultSelector $end
    $var wire 32 j iAluResult [31:0] $end
    $var wire 32 1 iMemDataOut [31:0] $end
    $var wire 32 T iPC [31:0] $end
    $var wire  3 ) iResultSrc [2:0] $end
    $var wire 32 Z iUpperImm [31:0] $end
    $var wire 32 # oRegDataIn [31:0] $end
   $upscope $end
   $scope module TargetPCAdder $end
    $var wire 32 Z iImmExt [31:0] $end
    $var wire  4 V iInstructionSubType [3:0] $end
    $var wire  4 U iInstructionType [3:0] $end
    $var wire 32 T iPC [31:0] $end
    $var wire 32 / iRegOffset [31:0] $end
    $var wire 32 i oPCTarget [31:0] $end
   $upscope $end
  $upscope $end
 $upscope $end
$enddefinitions $end


#0
b00000000000000000000000000000000 #
0$
0%
0&
0'
0(
b000 )
b00000000000000000000000000000000 *
b00000000000000000000000000000000 +
b00000000000000000000000000000000 ,
b00 -
b00000000000000000000000000000000 .
b00000000000000000000000000000000 /
b00000000000000000000000000000000 0
b00000000000000000000000000000000 1
b00000000000000000000000000000000 2
b00000000000000000000000000000000 3
b00000000000000000000000000000000 4
b00000000000000000000000000000000 5
b00000000000000000000000000000000 6
b00000000000000000000000000000000 7
b00000000000000000000000000000000 8
b00000000000000000000000000000000 9
b00000000000000000000000000000000 :
b00000000000000000000000000000000 ;
b00000000000000000000000000000000 <
b00000000000000000000000000000000 =
b00000000000000000000000000000000 >
b00000000000000000000000000000000 ?
b00000000000000000000000000000000 @
b00000000000000000000000000000000 A
b00000000000000000000000000000000 B
b00000000000000000000000000000000 C
b00000000000000000000000000000000 D
b00000000000000000000000000000000 E
b00000000000000000000000000000000 F
b00000000000000000000000000000000 G
b00000000000000000000000000000000 H
b00000000000000000000000000000000 I
b00000000000000000000000000000000 J
b00000000000000000000000000000000 K
b00000000000000000000000000000000 L
b00000000000000000000000000000000 M
b00000000000000000000000000000000 N
b00000000000000000000000000000000 O
b00000000000000000000000000000000 P
b00000000000000000000000000000000 Q
b00000000000000000000000000000000 R
b00000000000000000000000000000000 S
b00000000000000000000000000000000 T
b0000 U
b0000 V
b00000 W
b00000 X
b00000 Y
b00000000000000000000000000000000 Z
b0000 [
b00000000000000000000000000000000 \
b0000000 ]
b0000000 ^
b000 _
b0000 `
b0000 a
b0000 b
b0000 c
b0000 d
b0000 e
1f
0g
b00000000000000000000000000000000 h
b00000000000000000000000000000000 i
b00000000000000000000000000000000 j
b00000000000000000000000000000000 k
b00000000000000000000000000000100 l
b0000 m
b00000000000000000000000000000000 n
b00000000000000000000000000000000 o
b00000000000000000000000000100000 p
b00000000000000000000000000000101 q
b00000000000000000000000000000100 r
#1
b00000000000000000000000000000101 #
b00000000000000000000000000000100 ,
b01 -
b00000000000000000000000000000101 .
b1111 U
b1111 V
b1111 [
b1111 `
b1111 a
b1111 b
b1111 c
b1111 d
b1111 e
0f
b00000000000000000000000000000101 h
b00000000000000000000000000000101 j
b1111 m
#2
b00000000000000000000000000000100 T
1f
b00000000000000000000000000000100 i
b00000000000000000000000000001000 l
#3
0f
#4
b00000000000000000000000000001000 T
1f
b00000000000000000000000000001000 i
b00000000000000000000000000001100 l
#5
0f
#6
b00000000000000000000000000001100 T
1f
b00000000000000000000000000001100 i
b00000000000000000000000000010000 l
#7
0f
#8
b00000000000000000000000000010000 T
1f
b00000000000000000000000000010000 i
b00000000000000000000000000010100 l
#9
0f
#10
b00000000000000000000000000010100 T
1f
b00000000000000000000000000010100 i
b00000000000000000000000000011000 l
#11
0f
#12
b00000000000000000000000000011000 T
1f
b00000000000000000000000000011000 i
b00000000000000000000000000011100 l
#13
0f
#14
b00000000000000000000000000011100 T
1f
b00000000000000000000000000011100 i
b00000000000000000000000000100000 l
#15
0f
#16
b00000000000000000000000000100000 T
1f
b00000000000000000000000000100000 i
b00000000000000000000000000100100 l
#17
0f
#18
b00000000000000000000000000100100 T
1f
b00000000000000000000000000100100 i
b00000000000000000000000000101000 l
#19
0f
#20
b00000000000000000000000000101000 T
1f
b00000000000000000000000000101000 i
b00000000000000000000000000101100 l
#21
0f
#22
b00000000000000000000000000101100 T
1f
b00000000000000000000000000101100 i
b00000000000000000000000000110000 l
#23
0f
#24
b00000000000000000000000000110000 T
1f
b00000000000000000000000000110000 i
b00000000000000000000000000110100 l
#25
0f
#26
b00000000000000000000000000110100 T
1f
b00000000000000000000000000110100 i
b00000000000000000000000000111000 l
#27
0f
#28
b00000000000000000000000000111000 T
1f
b00000000000000000000000000111000 i
b00000000000000000000000000111100 l
#29
0f
#30
b00000000000000000000000000111100 T
1f
b00000000000000000000000000111100 i
b00000000000000000000000001000000 l
#31
0f
#32
b00000000000000000000000001000000 T
1f
b00000000000000000000000001000000 i
b00000000000000000000000001000100 l
#33
0f
#34
b00000000000000000000000001000100 T
1f
b00000000000000000000000001000100 i
b00000000000000000000000001001000 l
#35
0f
#36
b00000000000000000000000001001000 T
1f
b00000000000000000000000001001000 i
b00000000000000000000000001001100 l
#37
0f
#38
b00000000000000000000000001001100 T
1f
b00000000000000000000000001001100 i
b00000000000000000000000001010000 l
#39
0f
#40
b00000000000000000000000001010000 T
1f
b00000000000000000000000001010000 i
b00000000000000000000000001010100 l
#41
0f
#42
b00000000000000000000000001010100 T
1f
b00000000000000000000000001010100 i
b00000000000000000000000001011000 l
#43
0f
#44
b00000000000000000000000001011000 T
1f
b00000000000000000000000001011000 i
b00000000000000000000000001011100 l
#45
0f
#46
b00000000000000000000000001011100 T
1f
b00000000000000000000000001011100 i
b00000000000000000000000001100000 l
#47
0f
#48
b00000000000000000000000001100000 T
1f
b00000000000000000000000001100000 i
b00000000000000000000000001100100 l
#49
0f
#50
b00000000000000000000000001100100 T
1f
b00000000000000000000000001100100 i
b00000000000000000000000001101000 l
#51
0f
#52
b00000000000000000000000001101000 T
1f
b00000000000000000000000001101000 i
b00000000000000000000000001101100 l
#53
0f
#54
b00000000000000000000000001101100 T
1f
b00000000000000000000000001101100 i
b00000000000000000000000001110000 l
#55
0f
#56
b00000000000000000000000001110000 T
1f
b00000000000000000000000001110000 i
b00000000000000000000000001110100 l
#57
0f
#58
b00000000000000000000000001110100 T
1f
b00000000000000000000000001110100 i
b00000000000000000000000001111000 l
#59
0f
#60
b00000000000000000000000001111000 T
1f
b00000000000000000000000001111000 i
b00000000000000000000000001111100 l
#61
0f
#62
b00000000000000000000000001111100 T
1f
b00000000000000000000000001111100 i
b00000000000000000000000010000000 l
#63
0f
#64
b00000000000000000000000010000000 T
1f
b00000000000000000000000010000000 i
b00000000000000000000000010000100 l
#65
0f
#66
b00000000000000000000000010000100 T
1f
b00000000000000000000000010000100 i
b00000000000000000000000010001000 l
#67
0f
#68
b00000000000000000000000010001000 T
1f
b00000000000000000000000010001000 i
b00000000000000000000000010001100 l
#69
0f
#70
b00000000000000000000000010001100 T
1f
b00000000000000000000000010001100 i
b00000000000000000000000010010000 l
#71
0f
#72
b00000000000000000000000010010000 T
1f
b00000000000000000000000010010000 i
b00000000000000000000000010010100 l
#73
0f
#74
b00000000000000000000000010010100 T
1f
b00000000000000000000000010010100 i
b00000000000000000000000010011000 l
#75
0f
#76
b00000000000000000000000010011000 T
1f
b00000000000000000000000010011000 i
b00000000000000000000000010011100 l
#77
0f
#78
b00000000000000000000000010011100 T
1f
b00000000000000000000000010011100 i
b00000000000000000000000010100000 l
#79
0f
#80
b00000000000000000000000010100000 T
1f
b00000000000000000000000010100000 i
b00000000000000000000000010100100 l
#81
0f
#82
b00000000000000000000000010100100 T
1f
b00000000000000000000000010100100 i
b00000000000000000000000010101000 l
#83
0f
#84
b00000000000000000000000010101000 T
1f
b00000000000000000000000010101000 i
b00000000000000000000000010101100 l
#85
0f
#86
b00000000000000000000000010101100 T
1f
b00000000000000000000000010101100 i
b00000000000000000000000010110000 l
#87
0f
#88
b00000000000000000000000010110000 T
1f
b00000000000000000000000010110000 i
b00000000000000000000000010110100 l
#89
0f
#90
b00000000000000000000000010110100 T
1f
b00000000000000000000000010110100 i
b00000000000000000000000010111000 l
#91
0f
#92
b00000000000000000000000010111000 T
1f
b00000000000000000000000010111000 i
b00000000000000000000000010111100 l
#93
0f
#94
b00000000000000000000000010111100 T
1f
b00000000000000000000000010111100 i
b00000000000000000000000011000000 l
#95
0f
#96
b00000000000000000000000011000000 T
1f
b00000000000000000000000011000000 i
b00000000000000000000000011000100 l
#97
0f
#98
b00000000000000000000000011000100 T
1f
b00000000000000000000000011000100 i
b00000000000000000000000011001000 l
#99
0f
#100
b00000000000000000000000011001000 T
1f
b00000000000000000000000011001000 i
b00000000000000000000000011001100 l
#101
0f
#102
b00000000000000000000000011001100 T
1f
b00000000000000000000000011001100 i
b00000000000000000000000011010000 l
#103
0f
#104
b00000000000000000000000011010000 T
1f
b00000000000000000000000011010000 i
b00000000000000000000000011010100 l
#105
0f
#106
b00000000000000000000000011010100 T
1f
b00000000000000000000000011010100 i
b00000000000000000000000011011000 l
#107
0f
#108
b00000000000000000000000011011000 T
1f
b00000000000000000000000011011000 i
b00000000000000000000000011011100 l
#109
0f
#110
b00000000000000000000000011011100 T
1f
b00000000000000000000000011011100 i
b00000000000000000000000011100000 l
#111
0f
#112
b00000000000000000000000011100000 T
1f
b00000000000000000000000011100000 i
b00000000000000000000000011100100 l
#113
0f
#114
b00000000000000000000000011100100 T
1f
b00000000000000000000000011100100 i
b00000000000000000000000011101000 l
#115
0f
#116
b00000000000000000000000011101000 T
1f
b00000000000000000000000011101000 i
b00000000000000000000000011101100 l
#117
0f
#118
b00000000000000000000000011101100 T
1f
b00000000000000000000000011101100 i
b00000000000000000000000011110000 l
#119
0f
#120
b00000000000000000000000011110000 T
1f
b00000000000000000000000011110000 i
b00000000000000000000000011110100 l
#121
0f
#122
b00000000000000000000000011110100 T
1f
b00000000000000000000000011110100 i
b00000000000000000000000011111000 l
#123
0f
#124
b00000000000000000000000011111000 T
1f
b00000000000000000000000011111000 i
b00000000000000000000000011111100 l
#125
0f
#126
b00000000000000000000000011111100 T
1f
b00000000000000000000000011111100 i
b00000000000000000000000100000000 l
#127
0f
#128
b00000000000000000000000100000000 T
1f
b00000000000000000000000100000000 i
b00000000000000000000000100000100 l
#129
0f
#130
b00000000000000000000000100000100 T
1f
b00000000000000000000000100000100 i
b00000000000000000000000100001000 l
#131
0f
#132
b00000000000000000000000100001000 T
1f
b00000000000000000000000100001000 i
b00000000000000000000000100001100 l
#133
0f
#134
b00000000000000000000000100001100 T
1f
b00000000000000000000000100001100 i
b00000000000000000000000100010000 l
#135
0f
#136
b00000000000000000000000100010000 T
1f
b00000000000000000000000100010000 i
b00000000000000000000000100010100 l
#137
0f
#138
b00000000000000000000000100010100 T
1f
b00000000000000000000000100010100 i
b00000000000000000000000100011000 l
#139
0f
#140
b00000000000000000000000100011000 T
1f
b00000000000000000000000100011000 i
b00000000000000000000000100011100 l
#141
0f
#142
b00000000000000000000000100011100 T
1f
b00000000000000000000000100011100 i
b00000000000000000000000100100000 l
#143
0f
#144
b00000000000000000000000100100000 T
1f
b00000000000000000000000100100000 i
b00000000000000000000000100100100 l
#145
0f
#146
b00000000000000000000000100100100 T
1f
b00000000000000000000000100100100 i
b00000000000000000000000100101000 l
#147
0f
#148
b00000000000000000000000100101000 T
1f
b00000000000000000000000100101000 i
b00000000000000000000000100101100 l
#149
0f
#150
b00000000000000000000000100101100 T
1f
b00000000000000000000000100101100 i
b00000000000000000000000100110000 l
#151
0f
#152
b00000000000000000000000100110000 T
1f
b00000000000000000000000100110000 i
b00000000000000000000000100110100 l
#153
0f
#154
b00000000000000000000000100110100 T
1f
b00000000000000000000000100110100 i
b00000000000000000000000100111000 l
#155
0f
#156
b00000000000000000000000100111000 T
1f
b00000000000000000000000100111000 i
b00000000000000000000000100111100 l
#157
0f
#158
b00000000000000000000000100111100 T
1f
b00000000000000000000000100111100 i
b00000000000000000000000101000000 l
#159
0f
#160
b00000000000000000000000101000000 T
1f
b00000000000000000000000101000000 i
b00000000000000000000000101000100 l
#161
0f
#162
b00000000000000000000000101000100 T
1f
b00000000000000000000000101000100 i
b00000000000000000000000101001000 l
#163
0f
#164
b00000000000000000000000101001000 T
1f
b00000000000000000000000101001000 i
b00000000000000000000000101001100 l
#165
0f
#166
b00000000000000000000000101001100 T
1f
b00000000000000000000000101001100 i
b00000000000000000000000101010000 l
#167
0f
#168
b00000000000000000000000101010000 T
1f
b00000000000000000000000101010000 i
b00000000000000000000000101010100 l
#169
0f
#170
b00000000000000000000000101010100 T
1f
b00000000000000000000000101010100 i
b00000000000000000000000101011000 l
#171
0f
#172
b00000000000000000000000101011000 T
1f
b00000000000000000000000101011000 i
b00000000000000000000000101011100 l
#173
0f
#174
b00000000000000000000000101011100 T
1f
b00000000000000000000000101011100 i
b00000000000000000000000101100000 l
#175
0f
#176
b00000000000000000000000101100000 T
1f
b00000000000000000000000101100000 i
b00000000000000000000000101100100 l
#177
0f
#178
b00000000000000000000000101100100 T
1f
b00000000000000000000000101100100 i
b00000000000000000000000101101000 l
#179
0f
#180
b00000000000000000000000101101000 T
1f
b00000000000000000000000101101000 i
b00000000000000000000000101101100 l
#181
0f
#182
b00000000000000000000000101101100 T
1f
b00000000000000000000000101101100 i
b00000000000000000000000101110000 l
#183
0f
#184
b00000000000000000000000101110000 T
1f
b00000000000000000000000101110000 i
b00000000000000000000000101110100 l
#185
0f
#186
b00000000000000000000000101110100 T
1f
b00000000000000000000000101110100 i
b00000000000000000000000101111000 l
#187
0f
#188
b00000000000000000000000101111000 T
1f
b00000000000000000000000101111000 i
b00000000000000000000000101111100 l
#189
0f
#190
b00000000000000000000000101111100 T
1f
b00000000000000000000000101111100 i
b00000000000000000000000110000000 l
#191
0f
#192
b00000000000000000000000110000000 T
1f
b00000000000000000000000110000000 i
b00000000000000000000000110000100 l
#193
0f
#194
b00000000000000000000000110000100 T
1f
b00000000000000000000000110000100 i
b00000000000000000000000110001000 l
#195
0f
#196
b00000000000000000000000110001000 T
1f
b00000000000000000000000110001000 i
b00000000000000000000000110001100 l
#197
0f
#198
b00000000000000000000000110001100 T
1f
b00000000000000000000000110001100 i
b00000000000000000000000110010000 l
#199
0f
#200
b00000000000000000000000110010000 T
1f
b00000000000000000000000110010000 i
b00000000000000000000000110010100 l
#201
0f
#202
b00000000000000000000000110010100 T
1f
b00000000000000000000000110010100 i
b00000000000000000000000110011000 l
#203
0f
#204
b00000000000000000000000110011000 T
1f
b00000000000000000000000110011000 i
b00000000000000000000000110011100 l
#205
0f
#206
b00000000000000000000000110011100 T
1f
b00000000000000000000000110011100 i
b00000000000000000000000110100000 l
#207
0f
#208
b00000000000000000000000110100000 T
1f
b00000000000000000000000110100000 i
b00000000000000000000000110100100 l
#209
0f
#210
b00000000000000000000000110100100 T
1f
b00000000000000000000000110100100 i
b00000000000000000000000110101000 l
#211
0f
#212
b00000000000000000000000110101000 T
1f
b00000000000000000000000110101000 i
b00000000000000000000000110101100 l
#213
0f
#214
b00000000000000000000000110101100 T
1f
b00000000000000000000000110101100 i
b00000000000000000000000110110000 l
#215
0f
#216
b00000000000000000000000110110000 T
1f
b00000000000000000000000110110000 i
b00000000000000000000000110110100 l
#217
0f
#218
b00000000000000000000000110110100 T
1f
b00000000000000000000000110110100 i
b00000000000000000000000110111000 l
#219
0f
#220
b00000000000000000000000110111000 T
1f
b00000000000000000000000110111000 i
b00000000000000000000000110111100 l
#221
0f
#222
b00000000000000000000000110111100 T
1f
b00000000000000000000000110111100 i
b00000000000000000000000111000000 l
#223
0f
#224
b00000000000000000000000111000000 T
1f
b00000000000000000000000111000000 i
b00000000000000000000000111000100 l
#225
0f
#226
b00000000000000000000000111000100 T
1f
b00000000000000000000000111000100 i
b00000000000000000000000111001000 l
#227
0f
#228
b00000000000000000000000111001000 T
1f
b00000000000000000000000111001000 i
b00000000000000000000000111001100 l
#229
0f
#230
b00000000000000000000000111001100 T
1f
b00000000000000000000000111001100 i
b00000000000000000000000111010000 l
#231
0f
#232
b00000000000000000000000111010000 T
1f
b00000000000000000000000111010000 i
b00000000000000000000000111010100 l
#233
0f
#234
b00000000000000000000000111010100 T
1f
b00000000000000000000000111010100 i
b00000000000000000000000111011000 l
#235
0f
#236
b00000000000000000000000111011000 T
1f
b00000000000000000000000111011000 i
b00000000000000000000000111011100 l
#237
0f
#238
b00000000000000000000000111011100 T
1f
b00000000000000000000000111011100 i
b00000000000000000000000111100000 l
#239
0f
#240
b00000000000000000000000111100000 T
1f
b00000000000000000000000111100000 i
b00000000000000000000000111100100 l
#241
0f
#242
b00000000000000000000000111100100 T
1f
b00000000000000000000000111100100 i
b00000000000000000000000111101000 l
#243
0f
#244
b00000000000000000000000111101000 T
1f
b00000000000000000000000111101000 i
b00000000000000000000000111101100 l
#245
0f
#246
b00000000000000000000000111101100 T
1f
b00000000000000000000000111101100 i
b00000000000000000000000111110000 l
#247
0f
#248
b00000000000000000000000111110000 T
1f
b00000000000000000000000111110000 i
b00000000000000000000000111110100 l
#249
0f
#250
b00000000000000000000000111110100 T
1f
b00000000000000000000000111110100 i
b00000000000000000000000111111000 l
#251
0f
#252
b00000000000000000000000111111000 T
1f
b00000000000000000000000111111000 i
b00000000000000000000000111111100 l
#253
0f
#254
b00000000000000000000000111111100 T
1f
b00000000000000000000000111111100 i
b00000000000000000000001000000000 l
#255
0f
#256
b00000000000000000000001000000000 T
1f
b00000000000000000000001000000000 i
b00000000000000000000001000000100 l
#257
0f
#258
b00000000000000000000001000000100 T
1f
b00000000000000000000001000000100 i
b00000000000000000000001000001000 l
#259
0f
#260
b00000000000000000000001000001000 T
1f
b00000000000000000000001000001000 i
b00000000000000000000001000001100 l
#261
0f
#262
b00000000000000000000001000001100 T
1f
b00000000000000000000001000001100 i
b00000000000000000000001000010000 l
#263
0f
#264
b00000000000000000000001000010000 T
1f
b00000000000000000000001000010000 i
b00000000000000000000001000010100 l
#265
0f
#266
b00000000000000000000001000010100 T
1f
b00000000000000000000001000010100 i
b00000000000000000000001000011000 l
#267
0f
#268
b00000000000000000000001000011000 T
1f
b00000000000000000000001000011000 i
b00000000000000000000001000011100 l
#269
0f
#270
b00000000000000000000001000011100 T
1f
b00000000000000000000001000011100 i
b00000000000000000000001000100000 l
#271
0f
#272
b00000000000000000000001000100000 T
1f
b00000000000000000000001000100000 i
b00000000000000000000001000100100 l
#273
0f
#274
b00000000000000000000001000100100 T
1f
b00000000000000000000001000100100 i
b00000000000000000000001000101000 l
#275
0f
#276
b00000000000000000000001000101000 T
1f
b00000000000000000000001000101000 i
b00000000000000000000001000101100 l
#277
0f
#278
b00000000000000000000001000101100 T
1f
b00000000000000000000001000101100 i
b00000000000000000000001000110000 l
#279
0f
#280
b00000000000000000000001000110000 T
1f
b00000000000000000000001000110000 i
b00000000000000000000001000110100 l
#281
0f
#282
b00000000000000000000001000110100 T
1f
b00000000000000000000001000110100 i
b00000000000000000000001000111000 l
#283
0f
#284
b00000000000000000000001000111000 T
1f
b00000000000000000000001000111000 i
b00000000000000000000001000111100 l
#285
0f
#286
b00000000000000000000001000111100 T
1f
b00000000000000000000001000111100 i
b00000000000000000000001001000000 l
#287
0f
#288
b00000000000000000000001001000000 T
1f
b00000000000000000000001001000000 i
b00000000000000000000001001000100 l
#289
0f
#290
b00000000000000000000001001000100 T
1f
b00000000000000000000001001000100 i
b00000000000000000000001001001000 l
#291
0f
#292
b00000000000000000000001001001000 T
1f
b00000000000000000000001001001000 i
b00000000000000000000001001001100 l
#293
0f
#294
b00000000000000000000001001001100 T
1f
b00000000000000000000001001001100 i
b00000000000000000000001001010000 l
#295
0f
#296
b00000000000000000000001001010000 T
1f
b00000000000000000000001001010000 i
b00000000000000000000001001010100 l
#297
0f
#298
b00000000000000000000001001010100 T
1f
b00000000000000000000001001010100 i
b00000000000000000000001001011000 l
#299
0f
#300
b00000000000000000000001001011000 T
1f
b00000000000000000000001001011000 i
b00000000000000000000001001011100 l
#301
0f
#302
b00000000000000000000001001011100 T
1f
b00000000000000000000001001011100 i
b00000000000000000000001001100000 l
#303
0f
#304
b00000000000000000000001001100000 T
1f
b00000000000000000000001001100000 i
b00000000000000000000001001100100 l
#305
0f
#306
b00000000000000000000001001100100 T
1f
b00000000000000000000001001100100 i
b00000000000000000000001001101000 l
#307
0f
#308
b00000000000000000000001001101000 T
1f
b00000000000000000000001001101000 i
b00000000000000000000001001101100 l
#309
0f
#310
b00000000000000000000001001101100 T
1f
b00000000000000000000001001101100 i
b00000000000000000000001001110000 l
#311
0f
#312
b00000000000000000000001001110000 T
1f
b00000000000000000000001001110000 i
b00000000000000000000001001110100 l
#313
0f
#314
b00000000000000000000001001110100 T
1f
b00000000000000000000001001110100 i
b00000000000000000000001001111000 l
#315
0f
#316
b00000000000000000000001001111000 T
1f
b00000000000000000000001001111000 i
b00000000000000000000001001111100 l
#317
0f
#318
b00000000000000000000001001111100 T
1f
b00000000000000000000001001111100 i
b00000000000000000000001010000000 l
#319
0f
#320
b00000000000000000000001010000000 T
1f
b00000000000000000000001010000000 i
b00000000000000000000001010000100 l
#321
0f
#322
b00000000000000000000001010000100 T
1f
b00000000000000000000001010000100 i
b00000000000000000000001010001000 l
#323
0f
#324
b00000000000000000000001010001000 T
1f
b00000000000000000000001010001000 i
b00000000000000000000001010001100 l
#325
0f
#326
b00000000000000000000001010001100 T
1f
b00000000000000000000001010001100 i
b00000000000000000000001010010000 l
#327
0f
#328
b00000000000000000000001010010000 T
1f
b00000000000000000000001010010000 i
b00000000000000000000001010010100 l
#329
0f
#330
b00000000000000000000001010010100 T
1f
b00000000000000000000001010010100 i
b00000000000000000000001010011000 l
#331
0f
#332
b00000000000000000000001010011000 T
1f
b00000000000000000000001010011000 i
b00000000000000000000001010011100 l
#333
0f
#334
b00000000000000000000001010011100 T
1f
b00000000000000000000001010011100 i
b00000000000000000000001010100000 l
#335
0f
#336
b00000000000000000000001010100000 T
1f
b00000000000000000000001010100000 i
b00000000000000000000001010100100 l
#337
0f
